<?xml version="1.0" encoding="utf-8"?>
<!-- Generator: Adobe Illustrator 24.2.3, SVG Export Plug-In . SVG Version: 6.00 Build 0)  -->
<svg version="1.1" id="OBJECTS" xmlns="http://www.w3.org/2000/svg" xmlns:xlink="http://www.w3.org/1999/xlink" x="0px" y="0px"
	 viewBox="0 0 474.6 405.1" style="enable-background:new 0 0 474.6 405.1;" xml:space="preserve">
<style type="text/css">
	.st0{fill:#E9E9E9;}
	.st1{fill:#ADB5BD;}
	.st2{fill:#343A40;}
	.st3{fill:#6C757D;}
	.st4{fill:#212529;}
	.st5{fill:#FFFFFF;}
	.st6{fill:#495057;}
	.st7{fill:#CED4DA;}
	.st8{fill:#E0684E;}
	.st9{fill:#EF9976;}
	.st10{fill:#E98969;}
	.st11{fill:#F2A88D;}
	.st12{fill:#CD39EF;}
	.st13{fill:#1E495A;}
	.st14{fill:#DB7B61;}
	.st15{fill:#F39C81;}
	.st16{fill:#F8F9FA;}
	.st17{fill:#DEE2E6;}
</style>
<g>
	<path class="st0" d="M99.7,51.5c15.6,1,22.2-9.6,29.5-23.3C149.3-9.3,194-5.7,209.1,17.4c10.6,16.4,33.6,13,52.1,6.6
		c18.3-6.3,49.4-12.4,74.1-4.8c21.6,6.6,30.5,30.3,50.2,28.8c43-3.2,64.7,39.3,56.9,57.8c-5.1,12.1-7.6,25.6-3.5,38.1
		c4.6,13.7,15,24.6,23.4,36.3c8.4,11.8,15.2,26.5,11,40.3c-3.6,11.8-14.2,20-20.9,30.5c-20.6,32.5-0.2,82.2-27.6,109.3
		c-19.6,19.4-51.6,14.9-79.1,18.6c-22.9,3.1-44.4,12.7-67.2,16.5c-46.1,7.6-92.8-9.2-139.5-9.6c-16.5-0.2-33.3,1.7-49.2-2.4
		C68.5,377.9,50.4,361.5,43,341c-10.2-28.3-0.5-61.1-12.1-88.9c-9.4-22.6-32.3-41.1-30.9-65.5c0.9-15.2,11.3-27.9,18.4-41.4
		C29.1,125.1,15.1,45.8,99.7,51.5z M235.9,14.8c-4.1,0-7.4,2.5-7.4,5.7s3.3,5.4,7.4,5.7c13.3,0.9,13.3-4.5,13.3-7.7
		C249.2,13.5,240,14.8,235.9,14.8z M371.5,39.1c3.6,2.9,8.1,4.7,12.8,5c1.2,0.1,2.6,0,3.5-0.8c1.2-1,1.3-3,0.3-4.1
		c-0.7-0.7-1.6-1-2.5-1.4c-1.5-0.6-3-1.5-3.9-2.9c-0.3-0.4-0.5-0.9-0.9-1.1C378.2,32.3,366.8,35.2,371.5,39.1z M394.2,44.1
		c1.2,0.4,2.5,0,3.6-0.4c0.8-0.2,1.7-0.8,1.5-1.6c-0.1-0.4-0.4-0.6-0.8-0.8c-1.6-0.8-3.6-1.4-5.1-0.4
		C391.9,42.1,393,43.7,394.2,44.1z M448.5,151.3c0.2,1.8,1.3,3.3,2.4,4.7c2,2.8,4.1,5.6,6.8,7.8c1.1,0.9,2.5,1.7,3.9,1.8
		c1.3,0,2.6-0.6,3.7-1.3c2.6-1.9,4.4-4.9,4.8-8.1c0.5-4.4-1.5-8.7-3.9-12.4c-1.5-2.3-3.2-4.6-5.7-5.9c-4.1-2.1-6.9-0.3-8,3.4
		C451.4,144.6,448.1,147.6,448.5,151.3z M8.1,253.9c-2.2,1.9-0.2,7.5,0.4,11.2c0.2,1.1,0.5,2.3,1.2,3.2c1,1.2,2.6,1.7,4.1,2.1
		c2.7,0.8,5.9,1.4,7.9-0.4c1.5-1.4,1.7-3.6,1.7-5.7c0-1.9-0.1-3.7-0.3-5.6c-0.1-0.9-0.2-1.8-0.7-2.6c-0.6-1-1.7-1.5-2.7-2
		C15.8,252.6,10.3,251.9,8.1,253.9z M141.3,394.6c-1.3,0.3-2.8,0.8-3,2.1c-0.2,1.1,0.7,2,1.6,2.6c7.1,5.3,16.7,5.6,25.6,5.8
		c1,0,2.1,0,3.1-0.4c1.9-0.8,2.8-3.3,1.9-5.2c-0.3-0.7-0.8-1.2-1.4-1.8C162,390.8,150.2,392.8,141.3,394.6z M319,391
		c-8,5.9,0.1,11.1,10.2,7.2c5.5-2.1,10.7-4.2,16.3-5.6c1.8-0.5,12.7-2.8,12.7-5.3c0-6.5-12.3-5-20.1-3.9
		C332,384.4,325.6,386.2,319,391z"/>
</g>
<path class="st1" d="M317,319c-2.3-4.7-3-10-5.2-14.8c-0.5-1.1-1.2-2.3-2.3-3c-1.7-1.2-4-0.9-6.1-1c-5.4-0.3-10.6-3.7-13-8.6
	c-4.6-9.3,0.1-22.6-7.8-29.4c-3.9-3.3-10.1-3.4-14-0.2c-4,3.2-5.3,9.2-2.9,13.7c1.2,2.4,3.3,4.2,4.8,6.5c2.5,3.7,3.5,8.4,2.7,12.7
	c-0.9,4.7-3.8,9.6-1.8,13.9c2.4,5.3,10.5,6,12.9,11.2c2.6,5.7-2.8,13.4,1.3,18.1c1,1.2,2.5,1.9,3.9,2.5c6.3,2.8,14.7,4.2,19.4-0.9
	c1.4-1.5,2.3-3.3,3.8-4.7c3.9-3.4,13.5,0.6,14.5-3.1C328.1,328.3,318.5,322,317,319z"/>
<path class="st2" d="M188.5,131.4c1.2-6.3-1.4-13.1-6.5-16.9c-5.1-3.8-12.4-4.4-18.1-1.4c-4.6-12-11.1-25.3-23.5-28.8
	c-8.9-2.5-19,1.2-24.9,8.2c-4.6,5.4-6.9,12.7-6.3,19.8c-4-2.4-8.5-5-13.1-4.4c-6.7,0.8-11.3,9.3-8.2,15.3c-2.3-1.4-5.6-1-7.6,0.8
	c-2,1.8-1.5,4.5-0.4,7c31.7,0,63.6,0.5,95.4,0.5C176.1,131.4,188.4,131.8,188.5,131.4z"/>
<path class="st2" d="M385.3,129.5c-0.6-5.1-4.2-9.4-9.2-10.9c-4.9-1.5-10.3-0.5-14.9,1.9c-2.1-9.9-6.8-19.8-15.4-25.2
	c-8.6-5.3-21.5-4.3-27.1,4.1c-1.8-5.4-9.6-6.6-14.1-3.3c-4.6,3.3-6.2,9.4-6.1,15.1c-3.3-2.4-8.1-2.2-11.5,0
	c-4.4,2.8-8.9,11.6-5.2,16.6c3.2,4.3,11,2.3,15.5,2c11.5-0.8,23.1-0.3,34.7-0.3C349.8,129.5,367.5,129.5,385.3,129.5z"/>
<rect x="140.3" y="111.5" class="st3" width="198.8" height="110.7"/>
<rect x="145" y="119" class="st4" width="189.3" height="15.6"/>
<path class="st3" d="M154.1,126.1c0,1.3-1.1,2.4-2.4,2.4c-1.3,0-2.4-1.1-2.4-2.4s1.1-2.4,2.4-2.4
	C153.1,123.7,154.1,124.8,154.1,126.1z"/>
<path class="st5" d="M161.9,126.1c0,1.3-1.1,2.4-2.4,2.4c-1.3,0-2.4-1.1-2.4-2.4s1.1-2.4,2.4-2.4
	C160.9,123.7,161.9,124.8,161.9,126.1z"/>
<path class="st6" d="M169.8,126.1c0,1.3-1.1,2.4-2.4,2.4c-1.3,0-2.4-1.1-2.4-2.4s1.1-2.4,2.4-2.4
	C168.7,123.7,169.8,124.8,169.8,126.1z"/>
<g>
	<g>
		<rect x="147.5" y="141.8" class="st1" width="85.8" height="41"/>
		<rect x="240.5" y="141.8" class="st1" width="42.9" height="41"/>
		<rect x="288.9" y="141.8" class="st1" width="42.9" height="41"/>
	</g>
</g>
<g>
	<g>
		<rect x="147.5" y="191.9" class="st2" width="184.3" height="1.8"/>
		<rect x="147.5" y="198.3" class="st2" width="184.3" height="1.8"/>
		<rect x="147.5" y="204.7" class="st2" width="184.3" height="1.8"/>
	</g>
</g>
<path class="st7" d="M87.9,333.5h167.2c-1.3-8.1-3.7-16-7.6-23.2c-5.7-10.4-15-19.1-26.3-22.5c-17.9-5.3-39,4.9-45.8,22.2
	c-1.6-18.7-4.1-38.6-16-53.1c-8.9-11-22.4-17.6-36.3-19.9c-13.9-2.2-28.3-0.3-41.8,3.9c-3.8,1.2-7.5,2.6-10.7,4.3v70.9
	C70.5,325.7,78.3,333.5,87.9,333.5z"/>
<path class="st6" d="M328.3,303.7c2.2-2,4.7-3.7,6.7-6c3.9-4.6,4.7-10.9,6.4-16.7c1.7-5.8,5.1-11.9,11-13.1c5-1,10.8,1.8,14.8-1.2
	c1.4-1.1,2.3-2.7,3.1-4.3c2.8-5.9,4.3-12.4,7.2-18.4c2.9-5.9,7.7-11.5,14.1-12.7c5.6-1.1,11.8,1.6,14.9,6.4c3,4.9,2.7,11.6-0.7,16.2
	c-2.1,2.7-5,4.6-7.7,6.7c-6.1,4.8-11.4,12.2-9.9,19.8c1.3,6.5,7.5,12.4,5.7,18.8c-2.1,7.4-12.3,7.9-18.7,12.2
	c-8.9,6-9.9,19.3-18.1,26.2c-7.4,6.1-25.6,7.1-32.5-0.3C316.3,328.6,320.4,311,328.3,303.7z"/>
<path class="st6" d="M197.2,322.1c0.9-8.2,9-15,7.9-23.2c-0.9-7-7.9-11.3-12.2-16.9c-8.5-11-4.6-29.2,7.6-35.8
	c2.1-1.1,4.4-2,6.2-3.5c9.4-7.7,0.7-24,6.4-34.8c2.8-5.2,9.1-8.3,15-7.2c5.8,1.1,10.6,6.3,11.2,12.2c0.9,8.2-5.4,16.2-3.2,24.1
	c3.3,11.5,21.7,13.3,24.5,24.9c2.3,9.2-7.1,18.5-4.4,27.6c0.7,2.4,2.2,4.5,3.5,6.6c11.1,19.5-1.5,41.5-21.2,48.6
	C224.6,350,195.2,340.4,197.2,322.1z"/>
<path d="M293.9,301.7c-0.4,3.1-0.1,6.2-0.4,9.3c-0.7,7-4.1,13.8-2.7,20.7h20.9c-0.1-1.5,0.3-3.1,1.2-4.3c0.6-0.8,1.3-1.5,1.8-2.3
	c0.3-0.5,0.5-1,0.7-1.6c1.7-4.5,3.4-9,5.1-13.6c0.9,0.7,1.3,1.9,1.4,3c0.1,1.1-0.2,2.3-0.3,3.4c-0.8,5.1-0.7,10.2-0.5,15.3
	c0.3,0,0.7,0,1,0h16.8c1.1-7.9,4.5-15.2,6.7-22.8c2-7,2.7-14.3,2-21.6c0-0.4-0.1-0.8-0.4-1.1c-0.3-0.2-0.6-0.3-1-0.3
	c-12.2-1.7-24.7-3.4-37.1-1.7c-3.8,0.5-8.7,1.2-10.9,4.7C295.8,292.4,294.4,297.7,293.9,301.7z"/>
<path class="st8" d="M295.6,242.9c-0.2,2-1.1,4.2-0.1,6c1.2,2.2,4.7,2.6,5.6,5c0.2,0.5,0.2,1.1,0.5,1.6c0.3,0.5,0.9,0.8,1.4,0.6
	c0.2-0.1,0.3-0.4,0.4-0.6c2-4.1,1.9-9,1.7-13.5c-0.1-1.7-0.3-3.5-1.5-4.6c-1.4-1.2-5.6-2.2-7.3-1.4c-1,0.5-1.2,1.3-1,2.2
	C295.4,239.8,295.8,241.3,295.6,242.9z"/>
<path class="st8" d="M352.9,250.6c0.1,1.2,0.3,2.6,1.4,3.2c1.3,0.7,2.8-0.3,4.2-0.9c1.4-0.6,2.9-0.6,4.3-0.3
	c0.4,0.1,0.8,0.3,1.2,0.1c0.5-0.2,0-0.9,0-1.4c0.4-4.1,0.7-8.3-0.6-12.2c-0.2-0.6-0.4-1.1-0.8-1.6c-0.9-1-2.4-1.2-3.7-1
	c-2,0.2-6.1,1.5-6.8,3.7c-0.4,1.2,0.3,3.7,0.4,5C352.7,246.9,352.8,248.7,352.9,250.6z"/>
<path class="st9" d="M270.1,225.7c-1.5-0.2-3-0.2-4.5-0.1c-0.8,0.1-1.5,0.1-2.2,0.2c-0.5,0.1-1.3,0-1.5,0.6c-0.3,1.2,1.5,0.9,2.1,1
	c0.8,0.2,1.6,0.5,2.4,0.9c-0.3-0.2-1.5,0.3-1.9,0.3c-0.7,0.1-1.4,0.2-2.1,0.3c-1.4,0.2-2.9,0.2-4.3,0.3c-1.4,0-2.8,0-4.2-0.1
	c-0.4,0-3.8-1.1-3.6-0.1c0,0.1,0.2,0.3,0.3,0.3c1.8,1.4,4.1,2.4,6.2,3.1c2.7,1,5.6,1.5,8.5,1.6c3.2,0.1,6.5-0.3,9.4,1.1
	c3.2,1.6,4.9,5,6.7,8.1c3.4,5.8,7.6,11.1,12.5,15.7c1.1,1,2.4,2.1,3.9,2.2c2.2,0.2,4.2-1.7,4.6-3.9c0.4-2.2-0.3-4.4-1.4-6.3
	c-3.5-5.9-9.7-9.1-15-13.1C280.5,233.9,277.3,226.7,270.1,225.7z"/>
<path class="st2" d="M301.2,209.1c-1.2,0.7-2.4,1.4-3.2,2.5c-0.9,1.1-1.3,2.6-1.7,4c-1.6,5.8-2.8,11.7-3.7,17.7
	c-0.2,1.1-0.3,2.3,0.5,3.1c0.5,0.6,1.4,0.8,2.1,0.9c1.8,0.4,3.7,0.7,5.5,1.1c0.6,0.1,1.3,0.3,1.7,0.7c0.5,0.5,0.7,1.2,0.8,2
	c1.2,8-2,15.9-2.5,24c-0.3,4.4,0.2,8.9-1.1,13.1c-0.9,2.8-2.5,5.5-2.7,8.4c0,0.5,0,1.1,0.3,1.6c0.3,0.5,0.8,0.7,1.2,1
	c3.4,1.9,7.1,3.4,10.9,4.4c2.4,0.6,5.4,0.9,7-1c0.1,1.1,0.2,2.2,0.3,3.3c9.7,0.8,19.6-0.8,28.6-4.6c1.2-0.5,2.5-1.1,3-2.3
	c0.3-0.6,0.3-1.4,0.3-2c0-11.8,0.1-23.7,0.1-35.5c0-4.3,0-8.7,0.9-12.9c1.2,0.1,0.3,2.7,1.5,3c0.2,0.1,0.4,0,0.6-0.1
	c4.4-1.1,8.7-2.1,13.1-3.2c-0.1-0.9-0.5-1.7-0.8-2.5c-2.9-7.2,0.7-16-3.1-22.8c-4.4-7.8-15.8-8.2-22.1-14.6
	c-0.8-0.8-1.5-1.7-2.5-2.2c-1.7-0.9-3.8-0.6-5.6-0.2c-4.7,1-8.9,2.2-13.2,4.4C311.8,203,306.4,206,301.2,209.1z"/>
<path class="st8" d="M318,199.5c-0.1,0.3-0.3,0.6-0.2,1c0.1,0.3,0.3,0.6,0.6,0.8c2.2,2,4.6,4.1,7.5,4.5c3.9,0.5,7.6-2.2,10.2-5.2
	c0.5-0.6,1.1-1.3,1.3-2.1c0.2-0.8,0-1.8-0.8-2.2c-0.3-0.2-0.6-0.2-0.8-0.5c-0.2-0.2-0.2-0.5-0.2-0.8c-0.3-3.6-0.5-7.3-0.8-10.9
	c-1.3,0-2.4,1-3.5,1.7c-3,2-6.8,2.2-10,4C317.9,191.8,319.3,196.2,318,199.5z"/>
<path class="st9" d="M312.1,170.2c0.4,2.3,1.5,4.5,1.1,6.8c-0.2,1.5-1.1,2.9-1.2,4.4c-0.1,1.5,1.2,3.3,2.7,2.8
	c0.8,3.7,2.9,7.1,5.8,9.5c1.1,0.9,2.3,1.6,3.6,1.9c3.7,0.9,7.5-1.7,9.2-5c1.8-3.3,2-7.2,2.2-11c0.5-0.1,1-0.1,1.5-0.2
	c1.3-1.6,0.3-4.4-1.7-4.8c-0.1-2.4-0.2-4.9-1.1-7.2c-0.8-2.3-2.5-4.4-4.8-5.3c-1.5-0.6-3.2-0.5-4.9-0.4
	C319.9,162.1,311.1,163.7,312.1,170.2z"/>
<path class="st7" d="M312.7,179.3c0.2,0.2,0.5,0.3,0.7,0.2c0.2-0.1,0.3-0.3,0.4-0.5c1-2.5,1.1-5.2,0.5-7.8c-0.4-1.7-1.1-4,0.3-5
	c0.5-0.4,1.2-0.5,1.9-0.6c2.5-0.2,5.1,0.2,7.5-0.6c1.1-0.4,2.2-1,3.4-1.4c1.2-0.3,2.6-0.3,3.4,0.5c0.7,0.6,0.9,1.5,1.1,2.4
	c0.8,3,1.6,5.9,2.3,8.9c0.1,0.5,0.6,1.1,0.9,0.8c-0.3-1.8,1.2-3.3,1.7-5c0.2-0.9,0.2-1.8,0.1-2.6c-0.6-5.7-5-10.9-10.6-11.9
	c-1.8-0.3-3.7-0.2-5.5,0c-2.6,0.3-5.4,0.7-7.3,2.5c-1.7,1.5-2.5,3.8-3,6.1c-0.6,2.7-0.8,5.6-0.5,8.4
	C310.4,176.3,310.6,177.7,312.7,179.3z"/>
<path class="st9" d="M355.1,277.2c1.1,7.5,2.3,15.6-1.2,22.4c-0.8,1.7-1.9,3.2-2.8,4.8c-2.1,4.2-2.3,9-2.5,13.7
	c0.9,0.5,2-0.3,2.3-1.2c0.3-0.9,0.2-2,0.3-2.9c0.1-1,0.5-2.1,1.5-2.4c0.2-0.1,0.5-0.1,0.7,0c0.3,0.2,0.4,0.5,0.4,0.8
	c0.7,3.7-1.3,7.8-4.6,9.6c-0.4,0.3,0.3,0.8,0.8,0.8c3.7-0.2,7.2-2.5,9.2-5.6c2-3.1,2.7-7.1,2.1-10.7c-0.4-2-1.1-4.1-0.3-6
	c0.3-0.7,0.7-1.2,1-1.9c0.5-1.1,0.6-2.4,0.7-3.6c0.7-6.8,2.4-13.5,3.3-20.2c0.9-6.8,1.5-13.9-1.1-20.2c-0.5-1.2-0.7-2.3-0.9-3.5
	c-0.2-1.2-0.8-2.6-1.5-3.7c-0.6-0.9-1.8-1.4-2.9-1.5c-7.1-0.6-6.3,7.3-6.2,12.1C353.6,264.3,354.1,270.8,355.1,277.2z"/>
<path d="M151.2,331.3c0.5,0.4,1.2,0.5,1.8,0.4h20.2c-0.4-3.6-0.6-7.5,1-10.9c0.3-0.6,0.6-1.2,0.8-1.9c0.4-1.5,0-3.3,1.1-4.4
	c0.6,0.6,0.7,1.6,0.8,2.4c0.4,4.3,0.2,8.6-0.6,12.9c-0.1,0.6-0.2,1.3,0.1,1.8h22c0.6-3.8,0.7-7.7,1.3-11.5
	c1.6-10.8,3.2-21.7,2.2-32.5c0-0.4-0.1-0.8-0.3-1.1c-0.5-0.7-1.7-0.5-2.5-0.2c-3.5,1.1-7.2,1.2-10.9,1.4c-6.8,0.3-13.5,0.9-20.3,1.6
	c-3.3,0.4-6.6,0.7-9.9,1.2c-2,0.3-6.7-0.1-8,1.8c-1.2,1.8-0.4,6.2-0.5,8.2c-0.1,3.5,0,6.9,0.1,10.4c0.1,3.5,0.3,6.9,0.5,10.4
	C150.4,322.8,150.2,330.6,151.2,331.3z"/>
<path class="st1" d="M141.1,204.7c-1.2,0.7-2.4,1.4-3.4,2.3c-1.3,1.3-2.1,3-2.9,4.6c-2.6,5.5-5.3,10.9-7.9,16.4
	c-0.4,0.8-0.7,1.6-0.4,2.4c0.3,0.7,1.2,1,1.9,1.3c3.1,1,6.2,2,9.3,3c0.9,0.3,1.9,0.6,2.9,0.4c1-0.2,1.9-1.1,1.7-2.1
	c1.3,5.3-0.7,10.9,0.8,16.1c1.6,5.7,7.2,10.5,6.1,16.3c-0.3,1.6-1.1,3.1-1.6,4.7c-1.7,5.2,0.4,10.9,0.2,16.4
	c-0.1,2.6-0.6,5.5,0.9,7.7c1.1,1.5,2.9,2.3,4.6,2.9c10.5,3.8,22.3,6.2,32.6,2c3.3-1.4,6.4-3.4,9.4-5.4c4-2.7,8.3-6.2,8.6-11
	c0.2-2.4-0.7-4.8-1.1-7.3c-0.5-3.1-0.2-6.3-0.3-9.5c-0.2-6.3-2.3-12.3-3.7-18.4c-1.5-6.1-2.4-12.6-0.6-18.6c0.4,1.1,1.3,2,2.3,2.5
	c4.5-2.7,8.5-6.2,11.8-10.2c0.4-0.5,0.8-1,0.8-1.6c0-0.5-0.3-1-0.6-1.4c-0.9-1.3-1.8-2.7-2.7-4c-1.3-1.9-2.5-3.7-4-5.4
	c-3.7-4.5-8.5-8.1-13.9-10.3c-1.6-0.7-3.3-1.3-5-1.7c-8.4-2.4-16.3-1.9-24.9-0.7C154.7,197.2,147.7,201.1,141.1,204.7z"/>
<path class="st10" d="M158.5,199.8c2.5,2,5.1,3.8,7.8,5.5c1.2,0.7,2.7,1.4,4.1,0.9c0.9-0.3,1.5-1.2,2.1-2c1-1.5,1.9-3.1,2.7-4.8
	c0.4-0.8,0.8-1.7,0.8-2.6c0.1-0.9-0.2-1.7-0.4-2.6c-0.6-2-1.1-4.1-1.7-6.1c-0.1-0.2-0.1-0.5-0.3-0.7c-0.2-0.1-0.5-0.2-0.7-0.2
	c-3.5-0.2-11.2-2-13.6,1.5C158,190.7,157,198.6,158.5,199.8z"/>
<path class="st11" d="M155.5,177.1c0,0.7,0,1.4-0.4,2c-0.2,0.3-0.6,0.6-0.9,0.8c-1.2,1.1-0.8,3.4,0.7,4.1c0.6,0.3,1.3,0.4,1.7,0.9
	c0.5,0.6,0.3,1.5,0.2,2.3c-0.2,3.1,2.3,5.5,4.7,7.5c1.5,1.3,3.2,2.6,5.2,2.7c2.8,0.1,4.9-2.2,6.7-4.3c1.3-1.5,2.5-3.1,3.3-4.9
	c0.9-2.1,1-4.5,1.1-6.8c0.1-3.8,0.3-7.6,0.4-11.4c0.1-1.7,0.1-3.5-0.9-4.8c-0.6-0.9-1.6-1.4-2.6-1.8c-4.5-1.9-11-1.6-14.9,1.6
	C156.7,167.4,155.6,173.4,155.5,177.1z"/>
<path class="st7" d="M150.2,182.1c-1.2-2-3.6-3.2-4.5-5.4c-0.5-1.3-0.3-2.7-0.6-4.1c-0.5-2.5-2.6-5-1.6-7.3c0.5-1.2,1.6-1.9,2.4-2.9
	c0.9-1,1.3-2.4,2-3.5c1.7-2.7,4.6-4.4,7.4-5.9c1.3-0.7,2.5-1.4,4-1.6c1.1-0.2,2.2,0,3.3-0.2c2.1-0.5,3.7-2.5,5.8-2.5
	c2.3,0,3.8,2.3,6,3.1c1.5,0.6,3.4,0.5,4.6,1.6c1.2,1.2,1.1,3.2,2,4.6c1.4,2.4,5.4,3,5.7,5.7c0.2,1.6-1.1,3-1.3,4.6
	c-0.4,2.4,1.6,5,0.4,7.1c-0.4,0.6-1,1.1-1.3,1.7c-0.6,1.1-0.1,2.5-0.3,3.7c-0.5,2.7-3.9,3.4-6.6,3.7c0.2-3.5,0.3-6.9,0.5-10.4
	c0-1.1,0.1-2.2-0.3-3.2c-0.5-1.5-1.8-2.6-3-3.6c-1.5-1.2-3.1-2.5-5-2.4c-1.1,0-2.1,0.5-3.2,0.8c-1.6,0.4-3.3,0.4-4.8,1
	c-1.5,0.6-2.8,2.4-2.1,3.9c0.2,0.5,0.6,0.9,0.7,1.5c0.1,1.2-1.3,1.7-2.3,2.5c-1.5,1.3-0.4,5.2-0.1,7.7c-1.3-0.8-2.2-2.8-3.5-2.1
	c-2.8,3.5,3.3,3,2.4,6.2C155.8,190.2,150.8,183.2,150.2,182.1z"/>
<path class="st12" d="M118,251.3c3.3-0.4,6.5-3.4,9.8-3.5c3.3-0.1,6.9-1,9.1-3.5c1.4-1.5,2.1-3.5,2.8-5.4c0.6-1.7,1.3-3.5,1.2-5.3
	c-0.1-1.6-7.5-3-8.7-3.1c-2.7-0.3-4.4,0-6.5,1.8C121.4,236.3,117.6,243.9,118,251.3z"/>
<path class="st11" d="M133.9,241.8c2-0.2,4-0.1,5.9-0.7c2.4-0.7,4.4-2.2,6.5-3.5c7.6-4.7,16.6-6.9,23.8-12.1
	c1.7-1.2,3.3-2.6,5.1-3.7c2.1-1.2,4.5-2,6.8-2.8c0.6,0.5,0.4,1.4,0,2c-0.5,0.6-1.2,0.9-1.8,1.2c-2.2,1.1-4,2.8-5.4,4.8
	c-0.4,0.6-0.8,1.2-0.7,1.9c0,0.7,0.6,1.4,1.3,1.4c0.9,0,1.8,0.6,2.3,1.4c0.5,0.8,0.6,1.8,0.8,2.7c0.2,1.3,0.3,2.7-0.2,3.9
	c-0.5,1.2-1.8,2.2-3.1,1.9c-0.1-0.5-0.2-1-0.3-1.5c-0.7,0.5-1.4,0.9-2,1.4c-0.8,0.6-1.7,1.1-2.6,1.2c-1,0.1-2.1-0.5-2.3-1.4
	c-0.1-0.8-1.3-1.1-2.1-0.9c-0.8,0.3-1.5,0.8-2.3,1.1c-2.2,0.8-4.8-1.1-6.9-0.1c-0.7,0.3-1.3,0.9-1.8,1.5c-3.8,4.4-7.8,8.6-11.9,12.8
	c-2.8,2.8-5.9,5.7-9.8,6.1c-2,0.2-4.3-0.2-6.1,0.9c-1.3,0.8-2.4,2.3-3.9,2c-0.9-0.2-1.5-0.9-2-1.6c-2.3-3.2-4.4-9.6-2.5-13.5
	C121,243.8,129.6,242.1,133.9,241.8z"/>
<path class="st10" d="M209.9,242.6c3.5,3.7,8.4,6.8,13.5,6.2c0.2-4.4,0-8.8-0.5-13.1c-0.2-1.2-0.3-2.5-0.9-3.5
	c-0.6-1.1-1.6-2-2.5-2.8c-2.2-2-4.2-4.3-5.9-6.7c-0.5-0.8-1-1.6-1.8-2c-1.7-1-3.9,0.2-5.5,1.4c-2.8,2-7.3,5.7-5.2,9.5
	C203.2,235.4,206.9,239.5,209.9,242.6z"/>
<path class="st11" d="M217.5,233.1c1.9-3.2,4.9-5.7,5.8-9.3c0.4-1.6,0.3-3.3,0.4-5c0.3-10.8,5.2-21,11.3-29.9
	c0.1-0.2,0.3-0.4,0.6-0.5c0.6-0.1,0.9,0.8,0.8,1.4c-0.4,2.7-1.8,5.1-3.1,7.5c-0.4,0.8-0.9,1.9-0.3,2.6c1,1.2,3.3-0.6,4.5,0.5
	c1,0.9-0.1,2.7,0.7,3.8c0.2,0.3,0.6,0.5,0.9,0.7c0.9,0.8,1.2,2,1.4,3.2c0.1,0.5,0.2,1,0.1,1.5c-0.3,1.5-2.2,2.1-3.7,2.3
	c0.2,1.9-0.6,3.8-2,5c-0.9,0.7-2.1,1.2-2.7,2.2c-0.6,1-0.4,2.3-0.2,3.5c1.2,8.6-0.2,17.5-3.9,25.4c-0.3,0.6-0.6,1.2-1,1.6
	c-3,2.7-8.1-0.2-9.7-3C214.9,242.5,215.2,237.1,217.5,233.1z"/>
<path class="st13" d="M125.2,194.6c-1,1.3-2.4,2-3.5,3.1c-1.5,1.6-2.3,3.9-1.9,6c0.1,0.4,0.2,0.8,0.5,1.2c0.8,1.1,2.3,1.3,3.6,1.3
	c2.6,0.1,5.3-0.1,7.9-0.4c0.2,0,0.5-0.1,0.6-0.3c0.1-0.1,0.1-0.3,0.1-0.5c-0.1-1.6-0.8-3.1-1.5-4.6c-0.6-1.3-1.3-2.7-2.2-3.8
	c-0.6-0.8-1.3-1.4-2-2.1C126,193.8,125.9,193.7,125.2,194.6z"/>
<path class="st14" d="M114.7,286.8c6.5,0.8,13.2-1.6,18.4-7.3c0.3-0.3,0.6-0.6,0.7-1.1c0.1-0.5,0-1-0.2-1.5
	c-1.3-4.3-4.6-6.3-7.7-7.5c-6.5-2.5-13.3-2.9-19.8-1.4c-3.2,0.8-11.5,5.2-7,11.1C102.7,284,109.9,286.2,114.7,286.8z"/>
<path d="M127.2,277.6c3.3-0.1,6.7-0.3,10-0.7c1.1-0.1,2.2-0.2,3.1,0.3c1.3,0.9,1.4,2.7,1.4,4.3c0.1,9.5,4.3,18.5,4.3,28
	c0,7.4-2.5,14.6-3.4,22c-0.3,0.1-0.7,0.2-1,0.2h-23c-0.3-2.8-0.1-5.7,0.4-8.5c0.4-1.8,0.9-3.7,1-5.5c0.1-1.9-0.4-3.9-1.7-5.2
	c-0.5-0.5-1.4-0.9-2-0.4c-0.3,0.2-0.4,0.6-0.5,1c-0.7,2.6-0.7,5.4-0.5,8.1c0.2,3.5,0.6,7.1,1.6,10.5H88.9
	c-0.3-7.2-2.9-14.2-3.3-21.4c-0.3-5.8,0.8-11.6,2.6-17.1c1.5-4.4,3.1-10.8,6.2-14.4c2.9-3.4,9.3-1.5,13.1-1.4
	C114.1,277.7,120.6,277.9,127.2,277.6z"/>
<path class="st3" d="M87.8,215.2c-2.1,1.1-4.2,2.5-5.3,4.5c-1,2-0.9,4.5-0.8,6.8c0.2,3.4,0.4,6.8,0.6,10.2c0.2,3,0.4,6,1.2,8.9
	c1.3,4.8,4.3,9.2,4.4,14.1c0,1.5-0.2,3.1,0,4.6c0.2,1.5,1.2,3.1,2.6,3.4c0.8,0.2,1.8,0,2.6,0.3c1.6,0.5,2.2,2.5,2.1,4.1
	s-0.8,3.3-0.8,4.9c3.9-4.1,9.6-6.5,15.2-6.3c2.5,0.1,5,0.7,7.5,1.2c2.9,0.7,5.8,1.3,8.7,2.2c7,2,13.8,4.9,20.1,8.6
	c-0.2-3-0.5-6.1-0.7-9.1c-0.1-1.7-0.3-3.5-1.4-4.7c-0.6-0.6-1.4-1.1-1.6-2c-0.3-1.4,1.5-2.3,2.9-2.7c2.4-0.6,4.8-1.3,7.2-1.9
	c0.7-0.2,1.4-0.4,1.8-0.8c0.4-0.4,0.6-0.9,0.8-1.4c2.4-6.6-0.6-13.7-2.4-20.5c-2.5-9.8-2.5-20.3-6.9-29.3c-0.6-1.2-1-3.3-2.3-3.5
	c-2.4-0.4-2.5-0.1-6.2-0.9c-6.7-1.5-13.7,0.3-20.5,0.5c-4.8,0.1-9.1,1.6-13.6,2.7C97.7,210.6,92.6,212.6,87.8,215.2z"/>
<path class="st14" d="M102.5,209.3c6.9,4.6,15.6,6.3,23.7,4.8c2.3-0.5,4.6-1.2,6.9-2c3.6-1.3,7.2-2.8,10.3-5
	c-5.9-1.3-12.1-1.8-18.2-1.5c-1.5,0.1-3.2,0.1-4.1-1.1c-0.6-0.8-0.6-1.9-0.7-3c-0.3-3.6-7-14.5-11.2-9.5c-1.8,2.1-0.6,6.3-1.2,8.9
	C107.2,204.3,105.3,207.3,102.5,209.3z"/>
<path class="st15" d="M102.8,183.1c-0.9,1.4-0.5,3.6,0.9,4.6c0.7,0.5,1.6,0.7,2,1.4c0.5,0.8,0.3,1.8,0.3,2.8c0.1,3.3,3.2,5.7,6,7.5
	c1.5,0.9,3,1.8,4.7,2.2c1.7,0.4,3.6,0.2,5-0.9c0.8-0.6,1.3-1.4,1.8-2.3c4.1-7.2,4.4-15.9,4.6-24.1c0-1.1,0-2.1-0.3-3.1
	c-0.8-2-3-3-5-3.5c-3.2-0.8-6.6-1-9.7,0.1c-3.1,1.1-5.8,3.6-6.7,6.7c-0.9,2.9,0,6.1-0.9,8.9C104.8,183.1,103.7,182.8,102.8,183.1z"
	/>
<path class="st16" d="M110.3,171.2c-2.1,2.5-3.2,5.8-3.6,9c-0.1,0.8,0,1.4-0.6,2.3c-0.2,0.4-0.2,0.8-0.7,0.8c-2-0.3-2.3,0.4-2.1,2.3
	c0.1,1.6,1.7,2.1,2.3,3c2.5,3.7,3.5,7.3,3.3,11.4c-0.3,4.2-2.6,8-4.2,12c-1.6,3.9-2.5,8.7,0,12.2c-1.1-0.3-1.9-1.6-1.7-2.8
	c-1.8,3.8,2,8,2.2,12.2c0.2,3.8-2.8,7.6-1.7,11.3c-2.2-1-3.7-3.5-3.7-5.9c-2.6-0.1-5.3-1.7-6.2-4.1c-0.6-1.6-0.4-3.4-0.5-5.2
	c-0.1-1.7-0.7-3.7-2.3-4.4c-0.4-0.2-0.8-0.3-1.2-0.6c-0.8-0.6-0.7-1.8-0.4-2.7c0.3-0.9,0.9-1.7,1-2.7c0.1-0.8-0.1-1.7-0.2-2.5
	c-0.4-3,0.6-5.9,1.6-8.7c-0.6,0.9-1.2,1.8-1.8,2.7c1.3-2.1,0.3-4.8,0.6-7.2c0.4-3.2,3-5.7,3.5-8.9c0.3-2.1-0.2-4.2-0.6-6.2
	c-0.9-5.3-0.2-11.4,3.8-14.9c1-0.8,2.1-1.5,2.9-2.5c1.2-1.6,1.5-3.7,2.4-5.4c1.7-3.1,5.3-4.5,8.8-5c2.9-0.4,6-0.2,8.6,1.1
	c2.4,1.3,4.9,4,4.6,6.9c-2.8,0.7-4.5-0.9-7-1.1C114.8,167.3,112,169.3,110.3,171.2z"/>
<path class="st17" d="M127.4,175.7c0,4.5-0.6,8.9-1.3,13.4c-0.3,1.8-0.5,3.5-0.8,5.3c-0.4,2.3-0.7,4.7-1.8,6.8
	c-0.7,1.3-1.6,2.6-1.7,4c3.2,0.2,6.3,0.4,9.5,0.7c0.4,0,0.9,0.1,1.3,0.3c0.2,0.1,0.4,0.3,0.6,0.2c0.2,0,0.3-0.2,0.3-0.3
	c1-1.9-0.4-4.2-0.7-6.4c-0.3-2.1,0.3-4.2,0.1-6.3c-0.2-2.2-1.4-4.4-1.2-6.6c0.4,1,0.8,2,1.2,2.9c-0.1-2.2-1.2-4.2-1.6-6.3
	c-0.2-1-0.2-2.1-0.1-3.1c0-2,0-4,0.1-6.1c0-1.6,0-3.2-0.5-4.7c-0.6-1.5-1.7-2.7-3.1-3.3c-1-0.5-3.8-1.3-4.3,0.3
	c-0.4,1.4,1.9,2.6,2.6,3.4C127.2,171.5,127.4,173.7,127.4,175.7z"/>
<path class="st15" d="M129,247.7c0.9-0.1,1.8-0.2,2.6-0.5c0.7-0.3,1.3-0.9,1.9-1.4c1.4-1.4,2.8-2.8,4.1-4.3c1.1-1.3,2.2-3,1.7-4.6
	c-0.2-0.5-0.5-0.9-0.5-1.4c0-0.7,0.6-1.2,1.2-1.6c2.3-1.7,4.8-3.2,7.4-4.4c0.4,0.5,0.3,1.1,0,1.6c-0.3,0.5-0.8,0.9-1.3,1.2
	c-0.9,0.6-1.7,1.3-2.6,1.9c-0.7,0.5-1.4,1.2-1.4,2c0.1,0.8,0.9,1.3,1.7,1.4c0.8,0.1,1.5-0.1,2.3-0.2c3-0.4,6.1,1.3,7.5,4
	c-0.2,0.6-1.1,0.4-1.6,0.1c-1.9-1.2-4.1-2.3-6.4-1.8c-0.5,0.1-1,0.6-0.7,0.9c0.1,0.1,0.8,0.1,1,0.1c0.3,0.1,0.7,0.1,1,0.2
	c0.6,0.2,1.7,1.1,2.3,1.4c1.2,0.7,1.7,1.4,2.5,2.5c0.4,0.5,0.7,0.8,1,1.4c0.1,0.3,0.2,0.7,0.3,1c0.1,0.3,0.1,0.5-0.3,0.5
	c-0.3,0-0.5,0-0.8-0.1c-0.5-0.1-0.9-0.4-1.3-0.8c-0.7-0.6-1.4-1.3-2.3-1.4c0.6,0.5,1.2,0.9,1.7,1.5c0.2,0.2,2,1.6,1,1.8
	c-0.4,0.1-1-0.1-1.4-0.2c-0.6-0.2-1.1-0.5-1.6-0.8c-1-0.6-2-1.5-3.1-1.9c-0.5-0.2-1.1-0.3-1.7-0.2c-3,0.4-3.9,5.2-6.9,5.5
	c-0.6,0.1-1.1-0.1-1.7-0.1c-0.9,0-1.7,0.3-2.5,0.5c-4.7,1.5-9.5,2.5-14.3,3.4c-0.3,0.1-0.6,0.1-1,0.1c-0.4,0-0.8-0.3-1.2-0.5
	c-2-1.1-4.5-2.2-6.1-3.9c-2.2-2.3,2.1-2.3,3.5-2.3C118.4,248.4,123.7,248.2,129,247.7z"/>
<path class="st3" d="M183.3,334.9c-9.9-20.4-9.7-45.5,0.5-65.7c13.5,6.9,21.1,22.4,21.9,37.5c0.5,11-2.2,21.9-6.4,32.1
	C193.7,352.2,188.5,345.6,183.3,334.9z"/>
<path class="st1" d="M196.9,316.4c2.5-10.8,5.1-21.9,11.7-30.8c4.2-5.7,9.8-10.2,15.3-14.6c6-4.8,12-9.6,17.9-14.3
	c2.5,17.3,0.6,35.4-6.8,51.2c-5.7,12-14.8,22.6-26.1,29.6c-4.4,2.7-11.4,8.1-15.2,3C190.4,335.8,195.8,321.1,196.9,316.4z"/>
<path class="st3" d="M95.9,341.5C86,336.4,75.9,331,69,322.4c-4.5-5.5-7.4-12-10.3-18.5c-3.1-7-6.2-14-9.3-21
	c17.3,2,34.4,8.4,47.8,19.6c10.2,8.6,18.2,20,22.1,32.8c1.5,5,5,13.1-1,15.4C113.1,352.7,100.2,343.8,95.9,341.5z"/>
<path class="st6" d="M99.4,338.3c-5.9-6.3-12-12.9-14.9-21c-1.9-5.2-2.3-10.8-2.8-16.3c-0.5-6-1-11.9-1.5-17.9
	c12.3,5.9,23.2,15,30.2,26.7c5.3,8.9,8.3,19.4,7.8,29.9c-0.2,4,0.3,10.9-4.7,11.1C109.2,351,102,341.1,99.4,338.3z"/>
</svg>
