<?xml version="1.0" encoding="utf-8"?>
<!-- Generator: Adobe Illustrator 24.2.3, SVG Export Plug-In . SVG Version: 6.00 Build 0)  -->
<svg version="1.1" id="Layer_1" xmlns="http://www.w3.org/2000/svg" xmlns:xlink="http://www.w3.org/1999/xlink" x="0px" y="0px"
	 viewBox="0 0 2577.91 841.89" style="enable-background:new 0 0 2577.91 841.89;" xml:space="preserve">
<style type="text/css">
	.st0{fill:#010101;}
	.st1{fill:#F36D21;}
	.st2{fill:#DC1D46;}
	.st3{fill:#862782;}
	.st4{fill:#EE6523;}
	.st5{fill:#70BF4C;}
	.st6{fill:#A22276;}
	.st7{fill:#C31D69;}
	.st8{fill:#ADBC37;}
	.st9{fill:#EF4723;}
	.st10{fill:#3A3F99;}
	.st11{fill:#0D7994;}
	.st12{fill:#0D4B83;}
	.st13{fill:#29AC7E;}
	.st14{fill:#079DB5;}
	.st15{fill:#066735;}
	.st16{fill:#04559F;}
	.st17{fill:#F7911E;}
	.st18{fill:#52B548;}
	.st19{fill:#1162AE;}
	.st20{fill:#752981;}
	.st21{fill:#EBB020;}
	.st22{fill:#23449C;}
	.st23{fill:#03A99E;}
	.st24{fill:#56BD7E;}
	.st25{fill:#C51F4C;}
	.st26{fill:#2F308F;}
	.st27{fill:#8DC74F;}
	.st28{fill:#C2C330;}
	.st29{fill:#A12275;}
	.st30{fill:#7A8837;}
	.st31{fill:#46499E;}
	.st32{fill:#72256E;}
	.st33{fill:#76C043;}
	.st34{fill:#A41E5B;}
	.st35{fill:#D13E27;}
	.st36{fill:#738035;}
	.st37{fill:#94A139;}
	.st38{fill:#B9742A;}
	.st39{fill:#C58A2B;}
	.st40{fill:#8DC752;}
	.st41{fill:#8CC74F;}
	.st42{fill:#00A99F;}
	.st43{fill:#57BD80;}
	.st44{fill:#59BD80;}
	.st45{fill:#8DC750;}
	.st46{fill:#AE1E44;}
	.st47{fill:#532E8E;}
	.st48{fill:#99B33C;}
	.st49{fill:#DF8E26;}
	.st50{fill:#C25427;}
</style>
<path class="st0" d="M2523.75,549.59c-1.54,0.64-3.16,0.36-4.74,0.37c-72.13,0.01-144.26,0.01-216.39,0.01c-0.96,0-1.92,0-2.88-0.01
	c-2.06-0.04-2.64-0.11-2.64-2.88c0.02-13.27,0.03-26.54-0.01-39.81c-0.01-1.71,0.48-3,1.72-4.23c4.41-4.41,8.7-8.93,13.05-13.4
	c48.84-50.2,97.69-100.4,146.5-150.63c1.01-1.04,3.22-1.88,2.38-3.59c-0.56-1.14-2.63-0.47-4.01-0.47
	c-51.18-0.02-102.36-0.02-153.53-0.02c-1.6,0-3.19-0.05-4.79-0.12c-0.73-0.03-1.13-0.52-1.19-1.23c-0.07-0.79-0.09-1.6-0.09-2.39
	c0-12.95,0-25.9,0-38.85c0-0.8,0.03-1.6,0.07-2.4c0.05-0.96,0.64-1.39,1.55-1.41c1.28-0.04,2.56-0.05,3.84-0.05
	c9.28,0,18.55,0,27.83,0c62.53,0,125.07,0,187.6,0c1.92,0,3.84,0.06,5.75,0.09c0,16.32,0,32.63,0,48.95
	c-0.83,2.44-2.14,4.51-4.02,6.36c-18.33,18.05-35.67,37.05-53.52,55.56c-19.84,20.57-39.44,41.38-59.21,62.04
	c-12.03,12.58-23.98,25.24-36.02,37.81c-0.54,0.57-1.16,1.1-1.33,2.35c1.73,1.16,3.83,0.62,5.75,0.62
	c46.99,0.03,93.98,0.02,140.97,0.05c2.5,0,5.16-0.61,7.37,1.25C2523.75,518.88,2523.75,534.24,2523.75,549.59z"/>
<path class="st0" d="M1141.75,356.7c-0.46,1.31-0.92,2.63-1.38,3.94c-21.34,61.27-42.68,122.55-64.02,183.82
	c-2.2,6.32-1.16,5.48-7.55,5.5c-15.36,0.04-30.72,0.01-46.07,0.01c-1.28,0-2.56-0.01-3.84-0.02c-1.28-0.01-2.01-0.63-2.4-1.88
	c-1.16-3.66-2.41-7.28-3.61-10.93c-19.26-58.6-38.51-117.21-57.79-175.8c-0.53-1.6-0.76-3.38-2-4.82c-0.97,0.87-0.48,1.84-0.57,2.67
	c-0.09,0.79-0.02,1.6-0.02,2.4c0,60.62,0,121.24,0,181.86c0,1.6-0.02,3.2-0.05,4.8c-0.02,1.18-0.71,1.68-1.82,1.69
	c-0.96,0.02-1.92,0.04-2.88,0.04c-14.56,0-29.12,0-43.67,0c-0.8,0-1.6,0.01-2.4-0.03c-1.93-0.1-2.12-0.3-2.2-2.32
	c-0.05-1.28-0.02-2.56-0.02-3.84c0-83.01-0.01-166.02,0.02-249.04c0-7.34-0.98-6.25,6.38-6.27c23.36-0.05,46.71-0.04,70.07,0
	c5.55,0.01,4.69-0.76,6.46,4.78c20.63,64.54,41.26,129.08,61.88,193.63c0.47,1.48,0.77,3.03,1.7,4.35c1.33-1.18,1.46-2.86,1.96-4.34
	c12.96-38.47,25.9-76.94,38.83-115.42c8.76-26.06,17.49-52.12,26.29-78.16c1.92-5.69,0.85-4.82,6.99-4.83
	c23.52-0.04,47.03-0.02,70.55-0.01c1.28,0,2.56-0.01,3.84,0.05c0.89,0.05,1.48,0.53,1.51,1.49c0.04,1.28,0.07,2.56,0.07,3.84
	c0,83.65,0,167.3,0,250.95c0,0.64,0.01,1.28,0,1.92c-0.07,3.02-0.23,3.24-3.3,3.25c-15.52,0.03-31.04,0.01-46.55,0.01
	c-0.64,0-1.29,0.03-1.91-0.09c-0.87-0.16-1.41-0.71-1.44-1.63c-0.04-1.6-0.07-3.2-0.07-4.8c0-60.3,0-120.6,0-180.9
	c0-1.91,0-3.82,0-5.72C1142.4,356.78,1142.08,356.74,1141.75,356.7z"/>
<path class="st0" d="M1246.46,379.53c0-28.47-0.01-56.94,0.01-85.4c0-6.33-0.61-5.66,5.62-5.67c14.88-0.02,29.75-0.01,44.63,0
	c1.28,0,2.56,0.02,3.84,0.07c0.96,0.03,1.41,0.62,1.44,1.53c0.04,1.44,0.06,2.88,0.06,4.32c0,20.31,0,40.62,0,60.93
	c0,27.83,0.03,55.66-0.02,83.48c-0.01,6.88,0.2,13.75,0.66,20.61c0.32,4.8,1.05,9.54,2.3,14.18c2.4,8.94,7.32,16.24,14.63,21.95
	c8.14,6.36,17.45,10,27.55,11.59c12.46,1.96,24.86,1.54,37.12-1.63c5.45-1.41,10.62-3.52,15.48-6.34
	c9.23-5.35,15.09-13.15,17.15-23.69c0.98-5.02,1.81-10.07,1.98-15.2c0.24-7.19,0.54-14.39,0.55-21.58
	c0.05-47.98,0.01-95.96,0.04-143.94c0-7.27-0.94-6.26,6.4-6.28c14.56-0.05,29.11-0.02,43.67-0.01c1.28,0,2.56,0.02,3.84,0.07
	c0.95,0.03,1.45,0.59,1.48,1.51c0.05,1.44,0.07,2.88,0.07,4.32c0.01,11.99,0,23.99,0,35.98c0,36.3,0.02,72.61-0.02,108.91
	c-0.01,6.71-0.07,13.44-0.48,20.14c-0.74,12.16-2.56,24.14-6.51,35.74c-5.18,15.2-14.25,27.36-27.59,36.39
	c-12.79,8.66-26.87,14.06-41.91,17.07c-15.91,3.18-31.99,4.1-48.21,3.3c-11.37-0.56-22.64-1.7-33.73-4.26
	c-12.08-2.79-23.65-6.96-33.95-13.99c-18.64-12.71-30.09-30.07-33.65-52.52c-1.86-11.73-2.34-23.54-2.41-35.37
	C1246.37,423.67,1246.46,401.6,1246.46,379.53z"/>
<path class="st0" d="M1789.33,288.46c35.51,0,71.02-0.02,106.53,0.02c7.19,0.01,6.2-1.01,6.23,6.46
	c0.06,11.51,0.02,23.03,0.01,34.54c0,1.28-0.02,2.56-0.08,3.83c-0.04,0.9-0.54,1.48-1.47,1.52c-1.44,0.06-2.88,0.09-4.31,0.09
	c-24.95,0-49.91,0-74.86,0c-6.68,0-5.88-0.42-5.88,5.95c-0.01,67.65,0,135.29-0.02,202.94c0,6.98,0.88,6.12-6.08,6.14
	c-14.72,0.04-29.43,0.02-44.15,0.01c-1.28,0-2.56,0.02-3.83-0.09c-0.86-0.08-1.46-0.62-1.48-1.57c-0.04-1.6-0.07-3.2-0.07-4.79
	c0-67.49,0-134.97-0.01-202.46c0-1.6-0.02-3.19-0.12-4.79c-0.04-0.68-0.55-1.18-1.24-1.23c-1.43-0.09-2.88-0.11-4.31-0.11
	c-23.83-0.01-47.67,0.01-71.5-0.01c-7-0.01-6.24,0.73-6.26-6.04c-0.03-11.67-0.01-23.35,0-35.02c0-1.28,0.03-2.56,0.07-3.84
	c0.03-0.95,0.61-1.46,1.51-1.5c1.44-0.06,2.88-0.05,4.32-0.05C1717.99,288.46,1753.66,288.46,1789.33,288.46z"/>
<path class="st0" d="M1522.58,379.16c0-28.47-0.01-56.94,0.01-85.41c0-5.92-0.64-5.28,5.47-5.29c14.88-0.03,29.76-0.01,44.63-0.01
	c1.12,0,2.24-0.02,3.36,0.03c1.83,0.08,2.08,0.34,2.14,2.35c0.04,1.44,0.02,2.88,0.02,4.32c0,44.31,0.02,88.61-0.01,132.92
	c-0.01,13.77,0.94,27.48,2.08,41.19c0.28,3.35,0.93,6.65,1.97,9.86c2.91,8.92,8.69,15.13,17.46,18.52c5.1,1.97,10.42,3.1,15.81,3.84
	c8.4,1.17,16.85,1.87,25.34,1.91c17.76,0.08,35.52,0.07,53.27,0.09c1.28,0,2.56,0,3.84,0c4.27,0,4.19-0.31,4.19,4.18
	c0,12.8,0,25.59-0.01,38.39c0,0.96,0.01,1.93-0.16,2.86c-0.06,0.35-0.59,0.8-0.97,0.87c-0.94,0.17-1.91,0.19-2.86,0.19
	c-25.28-0.07-50.55-0.09-75.83-0.26c-11.37-0.07-22.72-0.84-33.88-3.07c-19.47-3.89-36.07-12.82-48.23-28.94
	c-8.06-10.68-12.72-22.84-14.83-36c-1.85-11.55-2.55-23.22-2.65-34.88c-0.19-22.55-0.06-45.1-0.06-67.66
	C1522.67,379.16,1522.62,379.16,1522.58,379.16z"/>
<path class="st0" d="M1930.82,418.55c0-41.41-0.01-82.82,0.01-124.23c0-6.64-0.73-5.84,5.9-5.85c14.71-0.03,29.43-0.01,44.14-0.01
	c1.12,0,2.24-0.02,3.36,0.02c1.88,0.08,2.11,0.31,2.18,2.31c0.05,1.28,0.03,2.56,0.03,3.84c0,83.14,0.01,166.28-0.01,249.42
	c0,6.63,0.72,5.9-5.85,5.92c-14.71,0.03-29.43,0.01-44.14,0.01c-0.96,0-1.92,0.02-2.88-0.01c-2.36-0.09-2.65-0.4-2.73-2.86
	c-0.04-1.28-0.01-2.56-0.01-3.84C1930.82,501.69,1930.82,460.12,1930.82,418.55z"/>
<path class="st0" d="M817.66,420.02c0-73.25,0-146.5,0-219.75c0-1.6-0.01-3.2,0.06-4.8c0.05-1.13,0.75-1.7,1.88-1.7
	c2.08,0,4.16-0.02,6.24,0.02c1.19,0.02,1.66,0.78,1.68,1.87c0.03,1.28,0.03,2.56,0.03,3.84c0,147.14,0,294.28-0.01,441.42
	c0,6.57,0.82,5.65-5.99,5.74c-0.8,0.01-1.6-0.02-2.4-0.07c-0.96-0.06-1.38-0.64-1.44-1.55c-0.04-0.64-0.05-1.28-0.06-1.92
	c-0.01-1.44-0.01-2.88-0.01-4.32C817.66,565.88,817.66,492.95,817.66,420.02z"/>
<path class="st0" d="M2273.42,370.78c-0.51-21.27-7.66-40.01-21.14-56.36c-7.9-9.58-17.74-16.54-29.5-20.66
	c-7.15-2.51-14.62-3.39-22.1-4.16c-9.08-0.93-18.19-1.13-27.31-1.13c-42.87-0.01-85.74-0.01-128.61-0.01c-5.3,0-4.74-0.34-4.79,5.02
	c-0.01,0.96,0,1.92,0,2.88c0,40.94,0,81.88,0,122.82c0,31.99,0,63.97,0,95.96c0,10.08,0,20.15,0,30.23c0,4.61-0.26,4.6,4.32,4.6
	c15.68,0,31.35,0,47.03,0c0.64,0,1.28,0.01,1.92-0.02c1.92-0.11,2.27-0.41,2.34-2.21c0.06-1.44,0.03-2.88,0.03-4.32
	c0-27.03-0.01-54.06,0.01-81.08c0-3.69,0.05-3.69,3.7-3.74c1.12-0.02,2.24,0,3.36,0c27.19,0,54.39,0,81.58,0
	c7.68,0,15.34-0.24,22.99-1.08c14.59-1.6,27.5-6.93,38.51-16.7c7.02-6.23,12.62-13.56,16.93-21.88
	C2270.5,403.82,2273.83,387.74,2273.42,370.78z M2209.99,389.96c-0.79,2.79-1.91,5.43-3.35,7.92c-3.35,5.76-8.14,9.72-14.58,11.69
	c-5.72,1.75-11.6,2.45-17.5,2.48c-25.25,0.14-50.5,0.08-75.75,0.09c-0.64,0-1.28-0.03-1.91-0.11c-0.71-0.1-1.12-0.58-1.18-1.27
	c-0.08-0.95-0.1-1.91-0.1-2.87c0-22.85,0-45.69-0.01-68.54c0-4.51-0.23-4.42,4.48-4.42c13.58,0.01,27.17,0,40.75,0c0,0,0,0,0,0
	c10.55,0,21.09-0.06,31.64,0.02c5.59,0.04,11.18,0.25,16.68,1.44c9.61,2.09,16.29,7.69,20.04,16.8c1.92,4.64,2.67,9.51,2.99,14.47
	C2212.66,375.22,2212.05,382.65,2209.99,389.96z"/>
<g>
	<path class="st1" d="M401.35,711.81c-0.31,0.31-0.62,0.62-0.93,0.93c-8.64,0-17.28,0-25.92,0c-1.02-1.06-2.39-0.72-3.62-0.84
		c-13.62-1.28-26.8-4.36-39.47-9.53c-0.72-0.29-1.38-0.75-2.07-1.13c-0.57-2.16,1.07-3.25,2.35-4.26
		c10.85-8.53,21.33-17.51,32.36-25.82c0.76-0.57,1.55-1.11,2.5-1.33c0.47-0.07,0.93-0.05,1.39,0.04c1.74,0.65,2.71,2.18,3.78,3.52
		c9.43,11.74,18.98,23.39,28.42,35.12C400.9,709.45,402.05,710.31,401.35,711.81z"/>
	<path class="st2" d="M574.15,646.51c-4.25,2.51-8.51,5-12.73,7.54c-25.75,15.48-52.78,28.31-80.78,39.13
		c-0.73,0.28-1.54,0.38-2.31,0.56c-3.6-2.29-5.68-5.97-8.21-9.19c-14.41-18.29-29.12-36.33-43.79-54.41
		c-1.2-1.48-2.47-2.94-3.16-4.76c-0.09-0.46-0.05-0.91,0.11-1.35c6.4-6.69,13.88-12.09,21.14-17.77c0.85-0.54,1.76-0.91,2.77-1
		c4.91,0.59,8.66,3.92,13.12,5.58c9.08,3.38,18.22,5.9,27.92,2.55c2.37-0.82,4.25-2.29,5.41-4.47c1.38-2.57,2.97-4.85,5.41-6.58
		c1.91-1.35,1.79-3.62,1.8-5.71c0.04-9.11,0.07-18.22-0.01-27.32c-0.03-3.64,1.15-6.39,4.08-8.67c8.46-6.57,16.54-13.59,25.02-20.13
		c4.53-3.5,6.47-3.28,10.02,1.06c7.58,9.27,15.14,18.55,22.65,27.87c2.2,2.73,3.35,5.7,3.3,9.25c-0.08,5.59-0.02,11.18-0.01,16.78
		c0.01,2.75,0.5,5.05,3.69,5.86c3.07,0.78,2.97,3.41,2.99,5.82c0.07,7.35,0.03,14.7,0.02,22.05c-0.01,3.37-0.11,6.67,2.21,9.57
		c1.39,1.74,0.65,4.02,0.81,6.06C575.54,645.75,574.79,646.09,574.15,646.51z"/>
	<path class="st3" d="M687.81,317.13c14.02,9.59,27.09,20.28,38.51,32.9c10.27,11.35,18.65,23.92,24.1,38.3
		c5.71,15.07,7.47,30.61,5.48,46.62c-0.69,5.56-1.78,11.02-3.17,16.44c-0.4,1.56-0.76,3.12-2.21,4.11c-2.91,0.09-4.01-2.3-5.45-4.1
		c-12.31-15.5-24.91-30.78-37.24-46.26c-4.04-5.07-4.1-5.02-9.28-0.8c-16.56,13.53-33.34,26.81-49.94,40.3
		c-2.89,1.86-5.32,4.31-8.12,6.29c-1.23,0.87-2.23,2.28-4.06,1.84c-2.35-1.4-2.26-4.11-3.23-6.22c-4.16-9.04-9.24-17.49-15.29-25.38
		c-1.27-1.65-2.57-3.39-4.31-4.47c-7.93-4.92-13.97-12.11-21.4-17.61c-2.62-1.94-2.34-3.93-0.57-6.08c2.46-2.99,5.74-5.04,8.73-7.42
		c8.7-5.73,16.22-12.95,24.45-19.28c11.28-8.68,22.08-17.96,33.28-26.73c8.46-6.97,16.95-13.89,25.58-20.64
		C684.89,317.97,685.92,316.55,687.81,317.13z"/>
	<path class="st4" d="M367.79,670.51c-0.33,0-0.65,0-0.98,0c-9.16-10.45-17.65-21.46-26.35-32.28c-5.11-6.35-10.29-12.64-15.38-19
		c-1.57-1.96-3.56-3.73-3.94-6.45c1.23-3.05,2.87-5.64,6.64-5.77c3.12,0.46,6.25,0.86,9.36,1.4c3.45,0.6,6.91,0.76,10.39,0.63
		c0.79-2.02,1.44-4.07,2.72-5.91c2.78-3.99,3.3-8.55,2.66-13.24c-0.34-2.54-0.18-4.76,2.13-6.33c5.88-4.41,11.43-9.24,17.19-13.81
		c2.55-2.02,2.63-3.9,0.55-6.45c-5.87-7.17-11.68-14.4-17.58-21.56c-0.74-1.16-1.11-2.42-1.18-3.78
		c-0.35-13.53-0.3-27.06-0.05-40.57c0.05-0.52,0.15-1.04,0.29-1.55c0.5-1.58,1.6-2.73,2.86-3.72c9.79-7.65,19.29-15.66,29.02-23.39
		c0.75-0.6,1.53-1.15,2.51-1.33c0.48-0.03,0.94,0.03,1.4,0.17c5.38,4.18,8.81,10.04,13.04,15.21c7.18,8.77,14.34,17.56,21.44,26.41
		c1.6,2,3.28,3.94,3.86,6.54c0,5.21,1.92,10.89-3.6,14.74c-14.21,11.12-27.95,22.83-42.26,33.83c-3.27,2.51-2.77,4.06-0.6,6.75
		c13.13,16.29,26.44,32.44,39.36,48.89c1.03,1.31,2.75,2.37,2.2,4.49l-0.01,0.01c-1.38,3.7-4.8,5.43-7.61,7.69
		c-15.34,12.39-30.76,24.69-45.97,37.26C369.26,669.93,368.51,670.17,367.79,670.51z"/>
	<path class="st5" d="M256.18,440.89c-1.18,1.04-1.98,1.81-2.84,2.5c-14.69,11.84-29.39,23.68-44.08,35.51
		c-0.87,0.7-1.74,1.4-2.64,2.07c-0.73,0.55-1.48,0.56-2.12-0.14c-0.54-0.59-1.04-1.21-1.55-1.83c-9.33-11.58-18.6-23.21-28.04-34.7
		c-2.07-2.52-3.05-5.03-2.81-8.27c0.23-3.02,0.2-6.08,0-9.11c-0.15-2.22,0.8-3.55,2.49-4.76c5.33-3.82,10.6-7.71,15.9-11.58
		c6.33-4.62,12.65-9.24,18.98-13.87c0.77-0.57,1.56-1.12,2.29-1.74c0.68-0.58,0.87-1.33,0.29-2.1c-1.05-1.41-2.12-2.8-3.21-4.19
		c-8.79-11.19-17.59-22.37-26.38-33.57c-0.49-0.62-0.93-1.28-1.31-1.8c-0.11-1.16,0.67-1.55,1.28-2.02
		c15.89-12.12,31.79-24.23,47.7-36.34c0.5-0.38,1.06-0.69,1.51-0.97c1.19,0.23,1.65,1.13,2.23,1.84
		c11.85,14.68,23.69,29.38,35.52,44.07c0.6,0.75,1.17,1.52,1.71,2.31c0.29,0.43,0.25,0.92-0.14,1.27c-0.95,0.85-1.92,1.69-2.91,2.49
		c-13.2,10.64-26.41,21.25-39.59,31.91c-4.78,3.86-4.47,2.84-0.7,7.54c8.7,10.85,17.45,21.67,26.17,32.51
		C254.59,438.8,255.25,439.69,256.18,440.89z"/>
	<path class="st6" d="M648.07,444.02c2.1-1.92,4.11-3.96,6.32-5.74c5.46-4.38,11.03-8.6,16.51-12.94c3.86-3.06,7.63-6.25,11.47-9.35
		c6.68-5.4,13.36-10.79,20.06-16.16c1.14-0.92,1.95-0.86,2.89,0.25c1.64,1.94,3.22,3.94,4.81,5.93c3.47,4.35,6.93,8.7,10.4,13.05
		c4.76,5.96,9.5,11.94,14.28,17.88c3.19,3.96,6.45,7.88,9.66,11.82c1.91,2.34,3.44,5.01,6.03,6.73c0.6,1.62,0.04,3.09-0.48,4.63
		c-2.1,6.2-4.65,12.2-7.51,18.09c-7.82,16.15-17.74,30.95-28.82,45.02c-0.38,0.49-0.9,0.87-1.36,1.3c-1.92-0.3-2.99-1.76-4.05-3.13
		c-19.19-24.64-38.84-48.91-58.35-73.29C649,446.94,647.48,445.93,648.07,444.02z"/>
	<path class="st6" d="M575.25,466.95c1.08,1.42,0.62,3.08,0.62,4.63c0.04,10.85,0.02,21.7,0.02,32.55c0,24.73,0.01,49.47-0.01,74.2
		c0,1.59-0.15,3.18-0.23,4.77c-2.86-0.05-3.96-2.4-5.41-4.21c-23.66-29.65-47.62-59.07-71.56-88.5c-1.45-2.24-3.4-4.09-4.86-6.32
		c-0.83-1.28-2.1-2.43-1.32-4.23c1.02-1.67,1.56-3.49,1.74-5.43c0.2-2.18,1.15-4.07,2.81-5.4c6.61-5.33,11.66-12.29,18.41-17.46
		c6.59-5.05,14.09-8.76,20.71-13.79c1.05-0.8,2.37-1.09,3.66-0.84c7.11,1.42,14.04,3.29,18.98,9.17c3.19,3.8,6.37,7.62,8.96,11.86
		c4.02,6.57,5.73,13.81,5.75,21.48c0.02,6.2-0.02,12.39,0.16,18.59c0.18-8.41,0.1-16.83,0.18-25.24
		C573.88,470.77,573.4,468.56,575.25,466.95z"/>
	<path class="st7" d="M648.07,444.02c4.69,5.82,9.4,11.62,14.07,17.45c4.77,5.96,9.48,11.96,14.26,17.91
		c3.19,3.97,6.52,7.82,9.69,11.81c3.66,4.61,7.19,9.32,10.8,13.97c3.12,4.01,6.28,8,9.45,11.98c1.98,2.49,4.01,4.93,6.01,7.4
		c-0.58,1.52-1.76,2.63-2.75,3.85c-15.21,18.72-32.04,35.92-49.68,52.33c-5.84,5.43-11.81,10.71-17.74,16.03
		c-0.82,0.74-1.75,1.34-2.64,2.01c-2.31-2.37-1.61-5.4-1.62-8.18c-0.05-40.37-0.05-80.74-0.01-121.11c0.01-5.12,0-10.2-1.93-15.06
		c0.03-0.32,0.06-0.63,0.09-0.95c0.15-0.28,0.31-0.56,0.46-0.84c2.43-1.92,4.92-3.78,7.27-5.8
		C645.11,445.68,646.49,444.71,648.07,444.02z"/>
	<path class="st8" d="M265.29,567.69c-0.15-1.75-1.48-2.79-2.47-4c-10.58-13.02-21.2-26.01-31.81-39.01
		c-5.86-7.18-11.72-14.37-17.57-21.55c-0.61-0.74-1.2-1.5-1.77-2.27c-0.56-0.75-0.48-1.51,0.21-2.12c0.95-0.85,1.96-1.64,2.96-2.44
		c17.79-14.34,35.59-28.68,53.38-43.03c1.23-1,2.64-1.82,3.43-3.29c0.29-0.77,0.86-1.32,1.44-1.87c4.82-4.55,5.36-4.56,9.57,0.75
		c2.16,2.72,4.87,5.07,6.09,8.49c0.04,0.56,0,1.11-0.09,1.66c0.04,28.04,0.02,56.06,0.02,84.09c0,1.59-0.01,3.19-0.22,4.76
		c-0.26,3.65-3.35,5.1-5.64,7.15c-1.41,1.25-3,2.29-4.37,3.59c-3.18,2.48-6.27,5.1-9.5,7.52
		C267.85,566.91,266.95,568.2,265.29,567.69z"/>
	<path class="st9" d="M367.79,670.51c1.2-2.13,3.05-3.7,4.88-5.2c6.14-5.02,12.37-9.93,18.57-14.87
		c7.57-6.02,15.17-12.01,22.72-18.06c3.22-2.58,6.34-5.28,9.5-7.92c4.59,5.71,9.18,11.42,13.75,17.14
		c4.47,5.6,8.89,11.25,13.37,16.84c3.29,4.1,6.66,8.14,9.98,12.22c2.81,3.46,5.62,6.94,8.4,10.43c2.28,2.86,4.47,5.8,6.81,8.61
		c1.04,1.25,1.82,2.62,2.55,4.03c-0.94,0.97-2.26,1.15-3.43,1.58c-16.99,6.16-34.33,11.09-52.16,14.16
		c-5.97,1.03-12.02,1.62-18.04,2.35c-1.09,0.13-2.22-0.01-3.34-0.02c-2.09-2.58-4.19-5.16-6.27-7.76
		c-3.46-4.33-6.92-8.67-10.36-13.01c-1.78-2.24-3.79-4.25-5.51-6.56C375.6,679.68,371.62,675.15,367.79,670.51z"/>
	<path class="st10" d="M566.7,236.57c5.35,2.35,10.36,5.31,15.2,8.57c10.36,12.31,20.31,24.95,30.46,37.43
		c1.2,1.48,2.45,2.96,2.7,4.97c-0.16,1.95-1.54,3.08-2.91,4.18c-17.17,13.73-34.4,27.4-51.45,41.28c-1.1,0.89-2.11,1.99-3.71,1.97
		c-3.4-1.48-5.13-4.64-7.31-7.32c-12.91-15.89-25.71-31.88-38.62-47.78c0.31-0.61,0.61-1.21,0.92-1.82
		c16.77-12.41,32.91-25.63,49.4-38.4C563.02,238.38,564.55,236.94,566.7,236.57z"/>
	<path class="st11" d="M354.4,314.52c-0.37-1.46,0.87-1.94,1.67-2.6c4.58-3.74,9.2-7.42,13.81-11.13
		c12.07-9.73,24.13-19.46,36.2-29.18c0.87-0.7,1.77-1.37,2.64-2.07c0.76-0.62,1.49-0.48,2.12,0.14c0.56,0.56,1.04,1.21,1.54,1.84
		c13.14,16.29,26.28,32.59,39.4,48.89c0.58,0.72,1.38,1.34,1.46,2.41c-0.48,1.27-1.68,1.87-2.65,2.65
		c-16.67,13.44-33.35,26.87-50.02,40.3c-0.62,0.5-1.21,1.05-1.88,1.47c-1.07,0.67-1.77,0.14-2.23-0.87
		c-1.53-0.61-2.69-1.69-3.69-2.96c-11.85-15.05-23.96-29.89-36-44.79C355.77,317.39,354.64,316.19,354.4,314.52z"/>
	<path class="st12" d="M511.07,279.87c2.44,0.46,3.67,2.46,5.05,4.15c4.93,6.03,9.76,12.14,14.61,18.23
		c4.76,5.97,9.46,11.97,14.25,17.91c3.89,4.82,7.88,9.57,11.82,14.36c0.02,0.73-0.28,1.34-0.72,1.9
		c-10.48,9.09-21.54,17.47-32.37,26.13c-5.23,4.18-10.37,8.47-15.73,12.49c-1.77,1.33-3.32,3.04-5.77,3.12
		c-1.9-0.7-3.05-2.26-4.26-3.74c-13.23-16.22-26.12-32.71-39.47-48.83c-0.61-0.74-1.22-1.49-1.18-2.54c0.54-1.24,1.68-1.9,2.67-2.69
		c16.36-13.07,32.73-26.13,49.11-39.18C509.7,280.69,510.4,280.3,511.07,279.87z"/>
	<path class="st13" d="M354.4,314.52c2.87,1.66,4.22,4.7,6.3,7.08c3.77,4.31,7.24,8.89,10.82,13.37
		c4.58,5.72,9.14,11.46,13.73,17.17c3.29,4.1,6.64,8.16,9.93,12.26c0.49,0.61,0.85,1.32,1.27,1.98
		c-5.51,4.52-11.02,9.04-16.52,13.57c-1.83,1.51-3.64,3.05-5.45,4.58c-3.13,4.8-7.83,7.7-12.65,10.46
		c-4.25,1.37-8.53,2.67-12.75,4.12c-4.53,1.57-8.87,3.61-13.1,5.88c-0.98,0.53-1.79,0.5-2.52-0.4c-0.4-0.5-0.87-0.94-1.25-1.45
		c-10.66-14.18-22.14-27.7-33.16-41.59c-3.23-4.07-3.44-3.39,0.88-6.87c16.3-13.14,32.6-26.26,48.9-39.39
		c0.62-0.5,1.27-0.97,1.85-1.52c1.1-1.04,2-0.49,2.92,0.26C353.83,314.22,354.13,314.35,354.4,314.52z"/>
	<path class="st14" d="M404.86,265.29c-0.45,1.61-1.53,2.1-2.37,2.78c-16.41,13.24-32.84,26.46-49.26,39.69
		c-0.62,0.5-1.26,0.98-1.9,1.45c-0.62,0.45-1.23,0.28-1.7-0.22c-0.55-0.57-1.03-1.22-1.53-1.84
		c-12.63-15.67-25.26-31.35-37.89-47.02c-2.75-3.41-2.81-3.19,0.54-5.89c16.18-13.02,32.35-26.05,48.53-39.07
		c0.98-0.79,1.84-1.8,3.51-2.1C376.8,230.45,390.92,247.96,404.86,265.29z"/>
	<path class="st15" d="M457.3,323.04c3.64,2.69,6.02,6.53,8.84,9.94c6.27,7.57,12.33,15.31,18.47,22.99
		c4.75,5.94,9.48,11.9,14.24,17.85c1.09,1.36,2.23,2.68,3.35,4.01c0.38,2.28-1.58,2.94-2.86,3.96
		c-12.06,9.64-24.34,19.02-36.47,28.58c-1.37,1.08-2.74,2.23-4.67,2.12c-6.26-4.32-12.6-8.52-19.69-11.37
		c-4.69-1.89-9.5-3.48-14.26-5.21c-6.77-4.36-10.22-11.65-15.35-17.46c-1.78-2.02-3.66-4-5.19-6.23c-0.94-1.38-2.46-2.66-1.54-4.69
		c0.56-0.56,1.08-1.17,1.69-1.66c17.15-13.83,34.31-27.65,51.47-41.46C455.96,323.91,456.65,323.5,457.3,323.04z"/>
	<path class="st16" d="M509.85,276.96c-0.69,0.65-1.34,1.35-2.09,1.94c-16.18,12.77-32.37,25.53-48.56,38.29
		c-0.63,0.49-1.28,0.96-1.89,1.47c-0.97,0.8-1.72,0.5-2.42-0.39c-2.66-3.39-5.34-6.78-8.01-10.17
		c-10.28-13.06-20.55-26.12-30.83-39.18c-0.69-0.88-1.36-1.76-1.96-2.54c-0.08-1.37,0.96-1.74,1.67-2.27
		c17.16-12.81,34.34-25.59,51.51-38.37c0.38-0.28,0.83-0.46,1.24-0.69c0.42-0.24,0.87-0.28,1.33-0.14c1.99,1.12,3.47,2.82,4.82,4.59
		c10.68,13.94,21.98,27.4,32.63,41.35C508.6,272.56,511.21,274.02,509.85,276.96z"/>
	<path class="st17" d="M321.63,612.95c4.81,5.91,9.66,11.79,14.41,17.74c5.74,7.2,11.34,14.5,17.09,21.69
		c3.37,4.22,6.97,8.26,10.35,12.46c1.37,1.7,2.99,3.32,3.32,5.66c-5.78,4.19-11.25,8.78-16.76,13.32
		c-5.5,4.54-11.25,8.79-16.83,13.23c-1.49,1.18-2.95,2.45-3.87,4.19c-4.8-1.37-9.06-3.88-13.36-6.29
		c-17.8-9.98-32.44-23.58-44.95-39.58c-0.19-0.24-0.26-0.57-0.39-0.86c-1-2.44,0.97-3.46,2.35-4.64
		c10.64-9.07,21.73-17.57,32.63-26.32c4.81-3.85,9.05-8.47,14.76-11.14C320.88,612.43,321.29,612.6,321.63,612.95z"/>
	<path class="st18" d="M287.75,456.49c-2.91-2.47-4.84-5.77-7.3-8.62c-0.71-0.83-1.23-1.83-2.39-2.32
		c-2.47,0.95-3.56,4.01-6.43,4.43c-2.24-2.7-4.51-5.38-6.71-8.11c-8.14-10.07-16.25-20.15-24.37-30.23c-1-1.24-1.96-2.5-2.86-3.66
		c0.05-1.52,1.21-1.98,2.04-2.65c16.91-13.65,33.83-27.28,50.77-40.9c0.85-0.68,1.59-1.6,3.1-1.72
		c12.13,14.98,24.36,30.08,36.53,45.11c-0.83,1.41-2.05,1.92-3.08,2.65c-13.32,9.32-23.11,21.44-29.17,36.55
		c-0.35,0.88-0.82,1.72-1.23,2.58C294.39,452.81,291.58,455.3,287.75,456.49z"/>
	<path class="st19" d="M408.3,261.54c-1-1.12-1.77-1.92-2.46-2.78c-12.04-14.92-24.06-29.85-36.09-44.78
		c-0.5-0.62-0.99-1.26-1.49-1.88c-0.7-0.87-0.79-1.7,0.14-2.48c0.37-0.31,0.74-0.61,1.11-0.91c15.92-12.83,31.85-25.66,47.77-38.49
		c0.5-0.4,1.01-0.78,1.52-1.16c0.61-0.46,1.21-0.32,1.7,0.17c0.55,0.57,1.04,1.21,1.54,1.83c12.43,15.43,24.85,30.85,37.28,46.28
		c0.4,0.5,0.76,1.02,1.1,1.48c-0.13,1.17-1,1.67-1.73,2.25c-16.17,13.03-32.35,26.06-48.53,39.08
		C409.68,260.57,409.15,260.92,408.3,261.54z"/>
	<path class="st20" d="M458.2,412.49c11.96-9.33,23.94-18.64,35.85-28.02c2.75-2.16,5.77-4,8.14-6.63
		c4.43-3.37,8.92-6.68,13.28-10.14c7.25-5.74,14.41-11.59,21.64-17.35c6.23-4.97,12.5-9.88,18.76-14.81c2.8-1.23,4.19,1,5.52,2.57
		c8.54,10.06,17.26,19.97,25.87,29.97c3.53,4.1,7.14,8.12,10.64,12.23c1.51,1.77,3.53,3.33,3.17,6.1c-2.13,1.66-4.31,3.26-6.37,5
		c-1.21,1.02-2.4,2.1-3.19,3.54c-0.73,1.34-0.7,2.3,0.57,2.78c2.97,1.14,5.04,3.38,7.09,5.6c3.82,4.13,8.2,7.55,12.87,10.64
		c2.97,1.97,5.4,4.43,7.42,7.35c1.36,1.96,2.85,3.83,4.26,5.76c4.63,6.37,7.79,13.55,11.23,20.57c0.76,1.55,1.07,3.31,1.59,4.97
		c0,0-0.02,0.04-0.02,0.04c-0.42,0.51-0.59,1.15-0.89,1.72c-0.96,1.24-2,2.38-3.65,2.67c-0.46-0.03-0.85-0.2-1.2-0.5l-0.01-0.03
		c-0.48-0.53-0.34-1.31-0.74-1.88c-0.08-0.31-0.16-0.62-0.24-0.94c-0.49-0.56-0.3-1.38-0.76-1.95c-0.26-0.22-0.34-0.49-0.24-0.82
		c-0.41-0.64-0.23-1.52-0.84-2.08c-0.25-0.11-0.3-0.29-0.18-0.52c0.02-0.58-0.35-0.97-0.69-1.38c-0.26-0.17-0.34-0.4-0.25-0.69
		c-0.04-0.5-0.4-0.83-0.65-1.22c-0.27-0.2-0.36-0.45-0.29-0.78c-0.18-0.4-0.39-0.78-0.64-1.14c-0.28-0.19-0.38-0.45-0.31-0.78
		c-0.19-0.4-0.4-0.78-0.66-1.14c-0.27-0.17-0.38-0.41-0.31-0.73c-0.08-0.49-0.42-0.82-0.7-1.19c-0.26-0.12-0.36-0.32-0.29-0.6
		c-0.03-0.58-0.39-0.97-0.79-1.33l-0.04-0.07c-0.28-0.22-0.48-0.51-0.6-0.85c-0.14-0.29-0.29-0.57-0.43-0.86
		c-0.21-0.39-0.45-0.75-0.73-1.1c-0.26-0.08-0.36-0.26-0.29-0.52c-0.01-0.65-0.37-1.07-0.91-1.37l0.02,0.03
		c-0.24-0.37-0.5-0.72-0.79-1.05l-0.09-0.15c-0.31-0.17-0.52-0.42-0.63-0.75c-0.32-0.15-0.48-0.4-0.46-0.75
		c-0.12-0.52-0.44-0.89-0.87-1.19l-0.01-0.02c-0.28-0.32-0.54-0.65-0.8-0.99l-0.11-0.15c-0.32-0.17-0.54-0.42-0.67-0.75
		c-0.63-0.45-1.16-0.98-1.35-1.77c-0.18-0.49-0.49-0.86-0.94-1.11l0.02,0.02c-0.22-0.42-0.55-0.73-0.94-0.99l-0.01-0.01
		c-0.27-0.35-0.57-0.67-0.91-0.96l-0.03-0.04c-0.29-0.32-0.59-0.63-0.89-0.93l-0.05-0.05c-0.3-0.3-0.6-0.6-0.91-0.91L608.7,420
		c-0.3-0.3-0.61-0.6-0.91-0.9l-0.05-0.05c-0.3-0.31-0.61-0.61-0.92-0.9l-0.04-0.04c-0.29-0.33-0.61-0.63-0.95-0.91l-0.02-0.02
		c-0.28-0.36-0.58-0.7-0.99-0.92l0.02,0.01c-0.25-0.44-0.62-0.75-1.1-0.94c-0.8-0.2-1.33-0.75-1.79-1.4
		c-0.34-0.1-0.58-0.32-0.71-0.65l-0.17-0.13c-0.35-0.22-0.67-0.48-0.95-0.78l-0.05-0.03c-0.31-0.36-0.66-0.69-1.13-0.84
		c-0.8-0.13-1.31-0.66-1.77-1.26c-0.33-0.22-0.64-0.46-0.94-0.72l-0.01-0.01c-0.32-0.43-0.7-0.78-1.26-0.85
		c-0.44-0.18-0.91-0.31-1.31-0.56c-13.81-8.9-28.93-14.14-45.2-16.12c-21.56-2.62-42.4-0.03-62.38,8.69
		c-7.95,3.47-15.37,7.83-22.14,13.27c-2.18,1.75-2.39,1.74-4.39-0.1C459.06,413.41,458.64,412.94,458.2,412.49z"/>
	<path class="st21" d="M320.72,612.9c-5.69,4.59-11.37,9.2-17.09,13.77c-7.21,5.75-14.48,11.43-21.67,17.2
		c-3.6,2.89-7.11,5.9-10.6,8.92c-0.42,0.36-0.48,1.14-0.71,1.73c-2.65-2.58-4.58-5.7-6.66-8.71c-11.04-15.94-19.76-33.12-27.1-51.02
		c-0.24-0.59-0.47-1.18-0.67-1.79c-0.33-1-0.14-1.88,0.7-2.57c0.25-0.2,0.49-0.41,0.73-0.61c9.21-7.38,18.43-14.75,27.64-22.13
		c4.09-3.18,7.88-6.73,12.27-9.53c5.53,4.15,10.9,8.39,10.84,16.27c-0.03,3.97,2.82,6.79,4.64,9.81
		c4.28,7.09,9.05,13.95,16.47,18.39c1.79,1.07,3.64,1.9,5.49,2.82C318,606.93,321.55,608.33,320.72,612.9z"/>
	<path class="st22" d="M509.85,276.96c-0.7-2.73-2.8-4.55-4.4-6.67c-2.88-3.8-5.93-7.47-8.89-11.21c-3.16-3.98-6.29-7.99-9.44-11.97
		c-4.24-5.36-8.61-10.62-12.68-16.11c-1.53-2.06-3.78-3.47-4.88-5.85c-0.41-2.54,1.57-3.65,3.1-4.9
		c6.62-5.42,13.43-10.59,19.94-16.14c1.91-1.63,3.96-3.35,6.82-2.02c0.6,0.2,1.22,0.35,1.78,0.61
		c20.85,9.84,41.38,20.31,61.61,31.36c0.97,0.53,1.85,1.21,2.77,1.82c0.36,0.26,0.59,0.71,1.11,0.71c0,0,0.02-0.02,0.02-0.02
		c-0.53,0.58-0.97,1.29-1.6,1.73c-4.28,3.01-8.3,6.34-12.34,9.67c-3.05,2.52-6.35,4.72-9.37,7.31c-3.84,3.29-8.02,6.19-11.98,9.34
		c-4.83,3.85-9.95,7.33-14.52,11.51c-0.93,0.85-2.07,1.47-3.14,2.15c-0.62,0.4-1.21,0-1.78-0.23
		C511.32,277.6,510.74,276.97,509.85,276.96z"/>
	<path class="st23" d="M291.79,349.8c-1.08-0.22-1.54-1.12-2.12-1.84c-10.95-13.56-21.88-27.14-32.82-40.71
		c-0.3-0.37-0.58-0.76-0.89-1.13c-0.78-0.96-0.48-1.75,0.38-2.45c0.62-0.5,1.23-1.02,1.86-1.52c13.45-10.83,26.9-21.67,40.35-32.5
		c0.75-0.6,1.51-1.18,2.27-1.76c0.59-0.45,1.2-0.43,1.71,0.07c0.57,0.56,1.07,1.19,1.57,1.81c10.84,13.44,21.68,26.89,32.51,40.34
		c0.3,0.37,0.58,0.76,0.89,1.13c0.8,0.97,0.46,1.74-0.39,2.44c-0.74,0.61-1.49,1.21-2.23,1.82c-13.33,10.74-26.65,21.48-39.99,32.19
		C293.93,348.47,293.09,349.5,291.79,349.8z"/>
	<path class="st24" d="M285.29,253.96c-15.7,12.8-31.17,25.09-46.43,37.48c-1.79-1.06-2.64-2.45-3.63-3.68
		c-10.24-12.68-20.45-25.38-30.67-38.07c-0.6-0.75-1.22-1.48-1.75-2.27c-0.5-0.74-0.44-1.52,0.25-2.14
		c0.83-0.75,1.68-1.47,2.55-2.18c13.31-10.73,26.62-21.45,39.94-32.18c0.62-0.5,1.27-0.97,1.89-1.47c0.97-0.77,1.76-0.46,2.45,0.39
		c3.41,4.22,6.82,8.45,10.23,12.68c7.72,9.58,15.44,19.16,23.15,28.74C283.86,252,284.4,252.77,285.29,253.96z"/>
	<path class="st23" d="M352.39,208.27c-2.5,2.65-41.33,34.1-46.22,37.46c-0.16,0-0.32,0.04-0.44-0.01c-0.15-0.05-0.3-0.15-0.39-0.27
		c-11.67-14.42-23.34-28.83-34.99-43.26c-0.29-0.36-0.44-0.84-0.63-1.22c0.38-1.22,1.39-1.79,2.24-2.48
		c13.81-11.15,27.64-22.28,41.47-33.41c0.62-0.5,1.24-1.03,1.95-1.37c0.34-0.16,0.96-0.06,1.3,0.16c0.52,0.34,0.93,0.87,1.33,1.36
		c11.14,13.82,22.28,27.64,33.41,41.47C351.8,207.18,352.07,207.76,352.39,208.27z"/>
	<path class="st25" d="M499.32,490.03c0.95,0.84,2.05,1.56,2.83,2.53c6.06,7.55,12.02,15.18,18.1,22.71
		c4.79,5.93,9.77,11.7,14.56,17.63c6.09,7.53,12.04,15.16,18.11,22.7c5.77,7.17,11.7,14.22,17.39,21.45
		c1.68,2.13,3.25,4.31,5.34,6.06c0.08,1.74,0.22,3.49,0.22,5.23c0.02,17.03,0,34.05,0.01,51.08c0,1.75,0.08,3.5,0.12,5.24
		c0.11,0.41,0.2,0.84-0.31,1.03c-0.18,0.07-0.4-0.15-0.58-0.43c-0.01-0.96-0.04-1.92-0.02-2.88c0.02-1.35-0.28-2.53-1.49-3.33
		c-2.16-1.43-2.35-3.61-2.34-5.92c0.03-8.31,0.01-16.62,0.01-24.94c0-1.28-0.01-2.56-0.05-3.84c-0.04-1.11-0.65-1.75-1.76-1.9
		c-0.32-0.04-0.64-0.03-0.96-0.08c-2.79-0.43-3.65-1.22-3.9-3.82c-0.12-1.27-0.05-2.56-0.05-3.83c0-5.43-0.22-10.88,0.08-16.3
		c0.19-3.36-1.14-5.84-3.05-8.25c-3.65-4.61-7.16-9.35-11.04-13.75c-3.38-3.82-6.4-7.91-9.71-11.78c-1.04-1.22-1.95-2.51-2.91-3.78
		c-1.69-2.23-3.6-2.36-5.75-0.64c-4.59,3.67-9.35,7.15-13.76,11.03c-4.78,4.21-9.81,8.1-14.81,12.03c-0.96,0.76-1.44,1.66-1.44,2.86
		c0,1.12-0.01,2.24-0.01,3.36c0,9.11,0,18.22,0,27.33c0,0.96-0.03,1.92,0,2.88c0.07,2.19-0.9,3.81-2.96,4.4
		c-1.76,0.5-2.8,1.57-3.28,3.15c-1.34,4.44-4.51,6.76-8.78,7.92c-1.08,0.29-2.11,0.74-3.18,1.06c-0.76,0.22-1.6,0.6-2.31,0.45
		c-6.06-1.23-12.4-0.79-18.27-3.07c-1.62-0.63-3.21-1.29-4.75-2.16c-3.03-1.71-6.42-2.76-9.35-4.74c-0.72-0.48-1.84-0.37-2.77-0.53
		c0.02-3.26,3.09-3.8,4.88-5.49c5.79,3.46,11.8,6.33,18.44,7.81c6.27,1.4,12.6,2.12,19.01,2.26c1.15,0.02,1.81-0.49,1.83-1.67
		c0.02-1.44,0.03-2.88,0.03-4.32c0-40.15,0-80.29,0.01-120.44c0-1.59,0.14-3.19,0.21-4.78c0.68-0.13,1.07,0.15,1.18,0.83
		c0.05,0.58,0.18,1.15,0.39,1.7c0.9,2.48,0.62,5.06,0.62,7.6c0.02,34.01,0.01,68.03,0.02,102.04c0,1.52-0.18,3.05,0.37,4.56
		c0.64-7.28,0.38-14.58,0.41-21.87c0.02-3.86,0.13-7.63,1.96-11.2c1.2-2.34,0.93-4.99,0.93-7.54c0.02-19.32-0.04-38.64,0.05-57.96
		C496.87,495,496.15,491.84,499.32,490.03z"/>
	<path class="st23" d="M412.88,161.71c-0.82,1.67-1.99,2.27-2.96,3.06c-13.88,11.29-27.77,22.57-41.66,33.84
		c-0.87,0.7-1.75,1.39-2.66,2.03c-0.43,0.31-0.93,0.19-1.29-0.16c-0.46-0.44-0.87-0.93-1.27-1.42
		c-12.08-14.88-24.16-29.76-36.24-44.64c-0.3-0.37-0.62-0.74-0.87-1.14c-0.37-0.59-0.41-1.21,0.11-1.73
		c0.45-0.45,0.96-0.84,1.45-1.24c3.98-3.21,8.05-6.31,11.9-9.67c1.9-1.65,3.7-1.98,6.11-1.43c14.96,3.42,29.67,7.64,44.08,12.94
		c7.04,2.59,14.02,5.34,20.88,8.4C411.16,160.86,411.85,161.22,412.88,161.71z"/>
	<path class="st26" d="M614.5,287.63c-2.38-3.77-5.31-7.11-8.12-10.56c-3.6-4.43-7.09-8.95-10.68-13.39
		c-3.19-3.95-6.48-7.83-9.68-11.77c-1.3-1.6-2.55-3.25-3.72-4.95c-0.33-0.48-0.28-1.21-0.4-1.83c0.31,0.16,0.63,0.31,0.94,0.47
		c0.35,0.2,0.69,0.42,1.01,0.66c0.31,0.14,0.62,0.29,0.93,0.43c0.34,0.1,0.62,0.3,0.83,0.59l0.06,0.03
		c0.37,0.37,0.74,0.73,1.31,0.77c0.3-0.06,0.52,0.05,0.65,0.33c0.35,0.27,0.71,0.49,1.1,0.69c0.28,0.13,0.55,0.26,0.83,0.39
		c0.34,0.16,0.64,0.37,0.9,0.64l0.02,0.01c0.35,0.44,0.75,0.81,1.36,0.8c0.28-0.07,0.48,0.03,0.58,0.3c0.35,0.29,0.68,0.6,1.14,0.71
		c3.15,1.21,5.84,3.22,8.68,4.96c28.48,17.36,55.92,36.21,81.99,57.03c1.24,0.99,2.37,2.11,3.54,3.17
		c-3.88,3.06-7.78,6.09-11.64,9.17c-5.85,4.68-11.67,9.41-17.5,14.11c-2.2,1.16-3.21-0.56-4.27-1.87
		c-12.8-15.83-25.49-31.75-38.44-47.45C615.1,290.05,614.87,288.83,614.5,287.63z"/>
	<path class="st27" d="M181.87,249.62c2.91,2.54,29.39,35.11,33.61,41.28c-0.3,0.99-1.14,1.5-1.88,2.09
		c-12.92,10.42-25.85,20.82-38.78,31.23c-0.37,0.3-0.75,0.6-1.13,0.88c-1.81,1.33-2.22,1.34-3.58-0.24
		c-1.56-1.81-3.06-3.69-4.54-5.56c-1.68-2.12-3.8-4.07-4.85-6.48c-1.13-2.6-0.39-5.67-0.41-8.53c-0.09-12.13-0.03-24.26-0.23-36.39
		c-0.04-2.75,0.91-4.36,3.17-5.81C169.55,258.05,175.7,253.77,181.87,249.62z"/>
	<path class="st23" d="M259.72,187.79c-0.99-1.17-1.73-2-2.42-2.86c-9.59-12.16-19.18-24.33-28.76-36.5
		c-0.59-0.75-1.2-1.5-1.65-2.33c-0.17-0.32-0.02-0.93,0.19-1.29c0.22-0.39,0.67-0.67,1.04-0.96c3.65-2.85,7.33-5.67,10.95-8.55
		c1.18-0.94,2.43-1.35,3.92-1.51c7.49-0.78,14.98-0.76,22.48-0.2c6.22,0.46,12.37,1.33,18.49,2.51c2.32,0.45,4.02,1.46,5.39,3.49
		c3.03,4.5,6.33,8.82,9.49,13.24c1.2,1.68,1.14,1.95-0.24,3.21c-0.47,0.43-0.98,0.82-1.47,1.23c-11.73,9.62-23.46,19.24-35.19,28.86
		C261.33,186.61,260.68,187.06,259.72,187.79z"/>
	<path class="st28" d="M219.33,590.94c-1.32-2.89-2.57-5.47-3.68-8.11c-6.72-15.93-12.02-32.34-16.25-49.1
		c-0.16-0.62-0.33-1.23-0.48-1.85c-0.28-1.2-0.01-2.18,1.04-2.93c1.3-0.92,2.56-1.91,3.84-2.87c4.22-3.17,8.43-6.35,12.68-9.48
		c1.32-0.97,1.88-0.89,2.87,0.2c0.54,0.59,1.02,1.23,1.52,1.86c10.98,13.74,21.96,27.49,32.93,41.23c0.5,0.62,0.99,1.26,1.46,1.9
		c0.57,0.79,0.33,1.5-0.3,2.11c-0.34,0.33-0.74,0.62-1.12,0.91c-10.9,8.39-21.8,16.77-32.71,25.15
		C220.77,590.23,220.31,590.4,219.33,590.94z"/>
	<path class="st24" d="M231.45,192.47c-0.4,1.4-1.27,1.87-2.02,2.44c-10.54,8.02-21.08,16.03-31.63,24.04
		c-0.25,0.19-0.51,0.39-0.77,0.57c-2.08,1.47-2.44,1.47-3.92-0.38c-1.49-1.87-2.91-3.8-4.36-5.71c-1.93-2.54-3.82-5.11-5.82-7.59
		c-1.08-1.34-1.47-2.75-1.23-4.43c1.08-7.41,2.13-14.83,3.19-22.24c0.43-3,0.9-5.99,1.31-8.99c0.13-0.96,0.26-1.89,1.1-2.54
		c4.91-3.76,9.79-7.55,15.11-11.3C212.26,168.6,222.04,180.54,231.45,192.47z"/>
	<path class="st27" d="M155.76,353.05c0.39,0.22,0.86,0.36,1.16,0.67c0.55,0.57,1.02,1.23,1.49,1.87
		c9.36,12.76,18.72,25.52,28.08,38.28c0.28,0.39,0.57,0.77,0.83,1.17c1.06,1.59,1.05,1.73-0.53,3.14c-0.95,0.85-1.94,1.66-2.94,2.47
		c-10.17,8.27-20.34,16.54-30.52,24.8c-0.86,0.7-1.76,1.37-2.7,1.96c-0.46,0.29-1.04-0.02-1.17-0.45c-0.23-0.75-0.28-1.57-0.33-2.36
		c-0.45-7.82-0.83-15.64-1.35-23.45c-0.77-11.63-1.65-23.26-2.48-34.89c-0.01-0.16-0.02-0.32-0.03-0.48
		c-0.39-5.67-0.4-5.67,4.34-8.86c1.59-1.07,3.19-2.13,4.8-3.18C154.81,353.5,155.25,353.32,155.76,353.05z"/>
	<path class="st29" d="M427.32,515c-3.83-4.9-7.61-9.84-11.5-14.69c-8.67-10.84-17.4-21.65-26.1-32.47c-0.25-1.7,0.89-2.69,2-3.56
		c8.07-6.25,15.75-12.98,23.83-19.21c0.87-0.67,1.72-1.5,2.99-0.98c6.24,5.49,9.47,12.7,11.54,20.52c1.15,4.34,1.65,8.8,1.68,13.27
		c0.08,12.93,0.04,25.87,0.02,38.8c0,0.94-0.24,1.88-0.36,2.82C428.35,519.57,428.58,516.61,427.32,515z"/>
	<path class="st30" d="M418.56,444.09c-8.59,6.91-17.19,13.81-25.76,20.75c-1.11,0.9-2.05,1.99-3.07,3c0,0-0.39,0.01-0.39,0.01
		l-0.39-0.03c-5.66-5.38-10.07-11.83-15.07-17.78c-3.25-3.88-4.29-4.08-7.89-0.37c-6.05,6.24-10.02,13.35-9.49,22.49
		c0.32,5.55,0.06,11.13,0.06,16.7c0,2.07,0.05,4.16-1.24,5.96c-0.06,0.29-0.11,0.57-0.16,0.86c-1.72,2.2-3.42,4.42-6.17,5.44
		c-0.45,0.01-0.84-0.14-1.17-0.46c-0.04-8.93-0.56-17.89-0.01-26.79c0.9-14.45,6.94-26.39,19.28-34.63
		c15.02-10.02,35.94-8.85,49.53,2.74C417.35,442.61,417.92,443.39,418.56,444.09z"/>
	<path class="st31" d="M499.4,202.09c-2.96,0.03-4.93,1.96-7.03,3.65c-4.57,3.69-9.26,7.25-13.67,11.13
		c-3.08,2.72-6.94,4.61-9.16,8.28c-0.34-0.03-0.69-0.07-1.03-0.1c0.25-1.26-0.52-2.09-1.22-2.97c-3.88-4.87-7.75-9.75-11.62-14.63
		c-8.84-11.13-17.69-22.25-26.52-33.38c-0.88-1.11-1.72-2.25-2.67-3.5c1.69-0.56,2.73,0.38,3.84,0.84
		c19.65,8.03,39.12,16.51,58.38,25.44C492.3,198.53,496.06,199.88,499.4,202.09z"/>
	<path class="st32" d="M491.66,480.47c-0.06-0.31-0.12-0.63-0.19-0.94c-0.25-0.26-0.43-0.55-0.54-0.9
		c-1.94-20.26,10.84-40.75,33.83-45.54c16.36-3.41,30.33,1.22,41.09,14.25c4.72,5.71,8.02,12.24,9.4,19.62
		c-0.05,10.06-0.1,20.11-0.17,30.16c-0.01,1.43-0.1,2.86-0.23,4.28c-0.02,0.22-0.38,0.47-0.63,0.59c-0.52,0.26-0.91-0.09-1.23-0.43
		c-0.87-0.9-0.73-2.07-0.73-3.17c-0.01-6.07-0.2-12.14,0.06-18.2c0.17-4.04-1.25-7.85-1.15-11.85c0.01-0.59-0.37-1.21-0.63-1.79
		c-1.25-2.75-2.26-5.65-3.84-8.2c-1.83-2.96-4.25-5.55-6.26-8.4c-3.1-4.41-6.84-7.87-12.2-9.35c-1.83-0.5-3.51-1.55-5.34-2.05
		c-2.78-0.75-5.39-0.94-7.87,1.4c-2.17,2.05-4.9,3.5-7.36,5.24c-1.66,1.18-3.19,2.32-5.3,2.97c-2.28,0.71-4.15,2.81-6.15,4.37
		c-2.98,2.33-5.41,5.29-8.45,7.56c-2.57,4.37-6.92,6.95-10.46,10.34c-1.38,1.32-2.02,2.8-1.86,4.68c0.12,1.45-0.08,2.85-0.87,4.14
		c-0.46,0.76-1.12,1.09-1.94,1.21C492.29,480.94,491.97,480.95,491.66,480.47z"/>
	<path class="st33" d="M187.88,486.75c-3.45,3.36-17.84,14.57-21.31,16.53c-1.51-4.72-2.31-9.54-3.44-14.27
		c-1.15-4.81-2.28-9.61-3.39-14.43c-1.08-4.66-2.19-9.31-3.15-13.99c-0.97-4.74-2.67-9.36-2.91-14.3c1.44,0.02,1.86,0.98,2.45,1.66
		C170.29,464.2,185.94,483.34,187.88,486.75z"/>
	<path class="st34" d="M631.69,456.51c1.3-1,2.6-1.99,3.91-2.99c0.32-0.26,0.62-0.23,0.92,0.03c2.61,3.49,3,7.41,2.99,11.68
		c-0.11,42.43-0.07,84.87-0.06,127.3c0,2.07,0.07,4.15,0.1,6.22c0,0.25-0.05,0.5-0.14,0.73c-0.65,1.09-1.21,2.29-2.52,2.76
		c-1.36,0.48-2.57,0.54-2.68-1.4c-0.07-1.27-0.03-2.55-0.03-3.83c0-40.05,0-80.1-0.02-120.15c0-1.74,0.34-3.51-0.35-5.21
		c0-3.12-0.99-6.07-1.61-9.08c-0.22-1.05-0.38-2.11-0.56-3.17C631.18,458.43,631.11,457.46,631.69,456.51z"/>
	<path class="st35" d="M427.32,515c1.87,1.05,2.46,3.26,4.11,4.5c0.11,1.74,0.31,3.49,0.32,5.24c0.03,10.86,0.02,21.72,0.03,32.58
		c0,7.75,1.49,15.23,4.18,22.48c2.83,7.64,7.28,14.17,13.64,19.33c0.62,0.5,1.19,1.05,1.79,1.58c-0.21,1.56-1.28,2.51-2.49,3.29
		c-0.94,0.6-1.93,1.1-2.39,2.2c-0.65,0.31-1.29,0.63-1.94,0.94c-9.7-8.37-15.61-18.84-19.27-31.18c-2.26-7.64-2.22-15.1-2.17-22.7
		c0.06-7.62-0.76-15.26,0.32-22.87c0.47-0.62,0.82-1.43,1.44-1.81c1.97-1.21,2.57-2.87,2.44-5.13
		C427.17,520.65,427.31,517.82,427.32,515z"/>
	<path class="st36" d="M402.18,367.53c0.48,1.92,1.83,3.34,3.04,4.75c5.27,6.12,10.1,12.58,15.06,18.94
		c1.26,1.62,2.65,3.13,3.98,4.69c-5.47-1.03-10.86-2.43-16.41-3.11c-11.14-1.37-22.25-1.45-33.38,0.04
		c-0.95,0.13-1.9,0.22-2.85,0.34c-2.18-0.75-0.73-1.76-0.04-2.41c2.3-2.19,4.86-4.05,7.88-5.16c2.76-2.13,5.56-4.22,8.29-6.4
		C392.59,375.34,397.37,371.42,402.18,367.53z"/>
	<path class="st24" d="M143.5,259.72c1.2-15.85,2.28-31.16,3.71-46.5c0.63,0.14,1.04,0.11,1.18,0.29
		c6.83,8.82,13.63,17.66,20.5,26.58c-1.77,2.46-4.24,3.71-6.3,5.42c-1.96,1.63-4.04,3.13-6.06,4.69c-2.15,1.66-4.28,3.34-6.46,4.96
		C148.07,256.64,146.26,258.42,143.5,259.72z"/>
	<path class="st37" d="M287.15,549.59c0-29.01-0.01-58.02,0.02-87.03c0-1.7-0.52-3.53,0.72-5.07c1.87-0.54,3.01-2.34,4.88-2.86
		c1.65-0.46,3.06-0.57,2.11,1.9c-1.67,5.53-2.37,11.18-2.36,16.96c0.05,27.1,0.03,54.19,0.04,81.29c0,3.02,0.05,6.05,0.08,9.07
		c-2.54-0.81-1.76-3.03-1.91-4.76c-0.18-2.06-0.26-4.18,0-6.22C291.13,549.85,289.46,549.47,287.15,549.59z"/>
	<path class="st38" d="M347.83,500.68c0.26,0.01,0.52,0.02,0.77,0.05c1.57,1.5,1.33,3.49,1.36,5.36c0.08,5.24,0.51,10.54-0.09,15.71
		c-0.79,6.74,2.08,11.98,5.42,17.23c0.34,0.95,0.68,1.91,1.02,2.86c1.14,9.49,0.35,19.02,0.4,28.52c0.02,4.55,1.03,9.17-0.4,13.69
		c-0.51,0.37-1.06,0.69-1.52,1.11c-0.86,0.78-1.45,1.67-0.89,2.91c0.68,1.5,0.24,3.12,0.46,4.66c0.64,4.51-1.38,8.29-3.34,12.02
		c-0.83,1.59-2.32,2.83-3.5,4.24c0.03-7.67,0.1-15.35,0.1-23.02c0-26.7-0.02-53.4-0.02-80.1
		C347.6,504.18,347.75,502.43,347.83,500.68z"/>
	<path class="st39" d="M287.15,549.59c1.44-0.57,2.31-2.18,4.11-2.15c0.94,0.39,0.66,1.28,0.67,1.99c0.03,3.77,0.02,7.53,0.03,11.3
		c0.01,1.08-0.17,2.22,0.68,3.12c0.76,5.2,1.61,10.38,3.41,15.36c4.32,11.93,12.43,20.2,24.14,24.98c2.49,1.02,5.05,1.89,7.57,2.83
		c-2.45,1.55-4.47,3.56-6.14,5.93c-0.31-0.02-0.61-0.04-0.92-0.05c-1.45-3.52-3.57-6.26-7.7-6.73c-0.61-0.07-1.31-0.21-1.78-0.56
		c-6.32-4.73-12.69-9.42-16.47-16.69c-0.5-0.96-1.36-1.74-2.07-2.59c-0.4-0.49-1.13-0.92-1.2-1.45c-0.35-2.68-1.84-4.63-3.63-6.49
		c-0.48-0.5-0.58-1.45-0.66-2.21c-0.11-1.1-0.13-2.23-0.03-3.34c0.21-2.39-0.62-4.2-2.31-5.96c-2.62-2.74-4.9-5.8-7.32-8.72
		c2.05-2.8,5.14-4.39,7.69-6.61C285.94,550.94,286.76,550.48,287.15,549.59z"/>
	<path class="st40" d="M104.92,406.47c-2.55,0-5.09,0.04-7.64-0.02c-1.55-0.04-2.01-0.48-2.06-1.98c-0.07-2.07-0.05-4.14-0.05-6.2
		c0-3.02-0.03-6.05,0.02-9.07c0.04-1.96,0.4-2.43,2.11-2.44c5.25-0.05,10.5-0.04,15.75,0.02c1.52,0.02,2.09,0.59,2.1,2.01
		c0.05,5.25,0.06,10.5,0.01,15.75c-0.01,1.45-0.51,1.88-2.13,1.91C110.33,406.51,107.63,406.47,104.92,406.47z"/>
	<path class="st41" d="M118.5,293.47c0.64,0.23,1.02,0.25,1.22,0.45c3.97,3.91,7.93,7.84,11.89,11.76c0.83,0.82,0.85,1.62,0.02,2.45
		c-3.84,3.82-7.66,7.66-11.51,11.47c-0.61,0.61-1.4,0.87-2.1,0.17c-3.96-3.92-7.9-7.87-11.84-11.81c-0.69-0.69-0.6-1.48,0.01-2.11
		C110.31,301.67,114.47,297.52,118.5,293.47z"/>
	<path class="st42" d="M297.49,128.89c0.75-0.36,1.03-0.63,1.27-0.59c10.67,1.91,21.34,3.85,32.13,5.8
		c-1.88,2.79-12.05,11.51-17.7,15.23C307.95,142.58,302.75,135.78,297.49,128.89z"/>
	<path class="st43" d="M131.81,163.74c0.63-0.32,0.79-0.48,0.89-0.45c6.7,2.13,13.39,4.27,20.07,6.44c0.77,0.25,1.64,0.77,1.14,1.71
		c-2.92,5.48-5.37,11.21-8.8,16.42c-0.07,0.11-0.29,0.11-0.68,0.25C140.18,180.03,136.1,171.83,131.81,163.74z"/>
	<path class="st44" d="M94.77,258.03c0.61,2.45-0.35,4.43-0.58,6.47c-0.57,4.92-1.35,9.81-2.07,14.71c-0.2,1.34-0.82,1.9-1.87,1.56
		c-5.77-1.86-11.66-3.36-17.24-5.78c-0.11-0.05-0.16-0.23-0.24-0.34C75.43,271.95,90.73,260.35,94.77,258.03z"/>
	<path class="st45" d="M88.48,326.71c1.3-0.08,1.63,0.51,2,0.98c3.64,4.65,7.27,9.3,10.9,13.96c0.39,0.5,0.79,1.01,1.12,1.55
		c0.47,0.77,0.46,1.53-0.33,2.09c-4.26,3.05-8.36,6.34-12.67,8.96c-0.85-0.14-1.02-0.59-1.02-1.06
		C88.48,344.42,88.48,335.64,88.48,326.71z"/>
	<path class="st44" d="M77.82,223.2c-4.1-7.26-7.34-13.78-10.69-20.51c0.84-0.12,1.33-0.35,1.71-0.23c4.87,1.53,9.74,3.1,14.59,4.7
		c1.87,0.62,2.07,1.09,1.24,2.72C82.59,214,80.45,218.09,77.82,223.2z"/>
	<path class="st3" d="M631.69,456.51c-0.02,0.97-0.03,1.94-0.05,2.91c-0.8-0.8-0.89-1.82-0.87-2.87
		C631.07,456.52,631.38,456.51,631.69,456.51z"/>
	<path class="st3" d="M627.94,448.84c0.83,0.47,0.92,1.24,0.84,2.08C628.14,450.38,627.89,449.67,627.94,448.84z"/>
	<path class="st3" d="M629.02,451.74c0.71,0.47,0.82,1.18,0.76,1.95C629.24,453.16,628.95,452.52,629.02,451.74z"/>
	<path class="st3" d="M630.02,454.63c0.67,0.46,0.78,1.14,0.74,1.88C630.19,456.01,629.95,455.38,630.02,454.63z"/>
	<path class="st3" d="M618.42,431.55c0.26,0.35,0.52,0.7,0.79,1.05C618.67,432.45,618.42,432.09,618.42,431.55z"/>
	<path class="st3" d="M596.22,409.51c0.31,0.24,0.63,0.48,0.94,0.72C596.65,410.24,596.35,409.98,596.22,409.51z"/>
	<path class="st3" d="M619.18,432.57c0.59,0.27,0.87,0.73,0.91,1.37C619.54,433.65,619.24,433.19,619.18,432.57z"/>
	<path class="st3" d="M620.38,434.46c0.24,0.37,0.49,0.73,0.73,1.1C620.62,435.36,620.36,435,620.38,434.46z"/>
	<path class="st3" d="M621.54,436.41c0.2,0.28,0.4,0.57,0.6,0.85C621.74,437.12,621.51,436.86,621.54,436.41z"/>
	<path class="st3" d="M623.26,439.26c0.23,0.4,0.47,0.8,0.7,1.19C623.49,440.2,623.25,439.8,623.26,439.26z"/>
	<path class="st3" d="M624.28,441.19c0.22,0.38,0.44,0.76,0.66,1.14C624.47,442.09,624.24,441.71,624.28,441.19z"/>
	<path class="st3" d="M625.25,443.11c0.22,0.38,0.43,0.76,0.65,1.14C625.43,444.01,625.2,443.64,625.25,443.11z"/>
	<path class="st3" d="M594.95,408.65c0.58,0.04,1,0.32,1.26,0.85C595.62,409.46,595.21,409.17,594.95,408.65z"/>
	<path class="st3" d="M622.18,437.33c0.52,0.29,0.77,0.74,0.79,1.33C622.44,438.37,622.18,437.93,622.18,437.33z"/>
	<path class="st3" d="M601.22,413.28c0.24,0.22,0.48,0.43,0.71,0.65C601.7,413.71,601.46,413.5,601.22,413.28z"/>
	<path class="st3" d="M603.73,415.33c0.55,0.1,0.91,0.41,1.1,0.94C604.27,416.18,603.91,415.86,603.73,415.33z"/>
	<path class="st3" d="M627.08,446.94c0.49,0.33,0.7,0.8,0.69,1.38C627.26,448,627.05,447.53,627.08,446.94z"/>
	<path class="st3" d="M604.81,416.25c0.51,0.12,0.84,0.42,0.99,0.92C605.27,417.08,604.94,416.78,604.81,416.25z"/>
	<path class="st3" d="M605.82,417.19c0.32,0.3,0.63,0.61,0.95,0.91C606.23,418.03,605.92,417.72,605.82,417.19z"/>
	<path class="st3" d="M606.81,418.14c0.31,0.3,0.62,0.6,0.92,0.9C607.2,418.97,606.9,418.67,606.81,418.14z"/>
	<path class="st3" d="M607.79,419.09c0.3,0.3,0.61,0.6,0.91,0.9C608.17,419.92,607.87,419.62,607.79,419.09z"/>
	<path class="st3" d="M608.75,420.05c0.3,0.3,0.6,0.6,0.91,0.91C609.13,420.88,608.83,420.57,608.75,420.05z"/>
	<path class="st3" d="M609.71,421.01c0.3,0.31,0.6,0.62,0.9,0.93C610.09,421.84,609.79,421.53,609.71,421.01z"/>
	<path class="st3" d="M610.64,421.98c0.3,0.32,0.61,0.64,0.91,0.96C611.03,422.83,610.72,422.52,610.64,421.98z"/>
	<path class="st10" d="M593.59,251.97c-0.52-0.01-0.91-0.25-1.14-0.71C592.99,251.23,593.37,251.48,593.59,251.97z"/>
	<path class="st10" d="M591.86,250.95c-0.61,0-1.06-0.27-1.36-0.8C591.11,250.16,591.58,250.41,591.86,250.95z"/>
	<path class="st46" d="M490.94,478.62c0.18,0.3,0.36,0.6,0.54,0.9c-0.19,0.01-0.37,0.03-0.56,0.05
		C490.93,479.26,490.93,478.94,490.94,478.62z"/>
	<path class="st3" d="M600.1,412.37c0.32,0.26,0.64,0.52,0.95,0.78C600.55,413.13,600.23,412.86,600.1,412.37z"/>
	<path class="st10" d="M590.48,250.14c-0.3-0.21-0.6-0.43-0.9-0.64C590.06,249.46,590.34,249.7,590.48,250.14z"/>
	<path class="st3" d="M611.56,422.96c0.31,0.33,0.62,0.66,0.94,0.99C611.97,423.82,611.66,423.49,611.56,422.96z"/>
	<path class="st3" d="M612.48,423.93c0.53,0.19,0.84,0.56,0.94,1.11C612.88,424.86,612.57,424.49,612.48,423.93z"/>
	<path class="st10" d="M588.76,249.11c-0.37-0.23-0.74-0.46-1.1-0.69C588.19,248.37,588.55,248.61,588.76,249.11z"/>
	<path class="st10" d="M587,248.09c-0.58-0.01-1.02-0.27-1.31-0.77C586.28,247.31,586.73,247.55,587,248.09z"/>
	<path class="st10" d="M585.62,247.29c-0.28-0.2-0.55-0.39-0.83-0.59C585.25,246.65,585.5,246.87,585.62,247.29z"/>
	<path class="st10" d="M583.86,246.27c-0.34-0.22-0.68-0.44-1.01-0.66C583.37,245.55,583.69,245.79,583.86,246.27z"/>
	<path class="st3" d="M614.77,426.81c0.23,0.25,0.45,0.5,0.67,0.75C615.04,427.47,614.79,427.24,614.77,426.81z"/>
	<path class="st3" d="M615.56,427.7c0.27,0.33,0.53,0.66,0.8,0.99C615.85,428.56,615.59,428.22,615.56,427.7z"/>
	<path class="st10" d="M566.68,236.6c-0.51-0.01-0.89-0.25-1.11-0.71C566.12,235.85,566.5,236.07,566.68,236.6z"/>
	<path class="st3" d="M616.37,428.71c0.52,0.23,0.81,0.63,0.87,1.19C616.73,429.67,616.43,429.28,616.37,428.71z"/>
	<path class="st3" d="M617.69,430.65c0.21,0.25,0.42,0.5,0.63,0.75C618.11,431.15,617.9,430.9,617.69,430.65z"/>
	<path class="st3" d="M598.93,411.49c0.38,0.28,0.75,0.56,1.13,0.84C599.5,412.29,599.13,412,598.93,411.49z"/>
	<path class="st3" d="M626.18,445.03c0.22,0.41,0.43,0.81,0.65,1.22C626.36,445.97,626.15,445.56,626.18,445.03z"/>
	<path class="st9" d="M423.45,530.39c0.81,2.44,1.01,4.94,0.99,7.51c-0.07,9.24,0.02,18.47-0.06,27.71
		c-0.02,2.6,0.21,5.06,1.62,7.32c1.04,1.67,1.44,3.51,1.3,5.48c-0.08,1.13,0.13,2.21,0.68,3.22c3.06,5.54,5.78,11.27,9.29,16.55
		c1.06,1.59,2.4,3.04,4.08,3.97c2.04,1.12,2.86,2.87,3.22,4.99c-7.03,5.77-14.07,11.54-21.1,17.31
		c-4.79-5.92-9.62-11.81-14.38-17.76c-6.05-7.56-12.03-15.16-18.06-22.73c-4.06-5.09-8.17-10.13-12.23-15.21
		c-1.18-1.47-1.17-1.84,0.32-3.1c2.18-1.85,4.43-3.61,6.67-5.38c3.98-3.16,7.98-6.28,11.95-9.45c4.71-3.76,9.45-7.49,14.08-11.35
		C415.6,536.32,419.31,533.09,423.45,530.39z"/>
	<path class="st47" d="M614.5,287.63c5.48,6.61,10.98,13.19,16.42,19.83c5.44,6.64,10.84,13.32,16.21,20.02
		c2.98,3.72,5.9,7.5,8.78,11.29c0.73,0.97,1.56,1.57,2.76,1.63c-4.88,4.05-9.71,8.15-14.65,12.13c-5.43,4.38-10.97,8.64-16.43,12.98
		c-3.85,3.06-7.68,6.15-11.49,9.27c-4.05,3.32-8.04,6.72-12.11,10.01c-0.85,0.69-1.94,1.08-2.92,1.61c-1.7-2.69-3.98-4.93-5.89-7.43
		c-2.9-3.78-6.46-6.95-9.29-10.8c-2.61-3.56-5.87-6.64-8.78-9.99c-3.01-3.46-5.92-7.01-8.92-10.49c-3-3.48-6.05-6.92-9.09-10.36
		c-0.86-0.97-1.82-1.8-3.23-1.8c0.31-0.34,0.61-0.68,0.92-1.02c2.27-1.73,4.65-3.33,6.78-5.22c4.54-4.01,9.36-7.65,14.11-11.39
		c4-3.15,7.86-6.47,11.84-9.66c3.97-3.18,8.02-6.27,12.01-9.43c3.62-2.86,7.24-5.73,10.79-8.67
		C613.17,289.46,613.78,288.48,614.5,287.63z"/>
	<path class="st48" d="M355.33,494.83c-0.01-9.57,0.01-19.13-0.04-28.69c-0.01-1.98,0.18-3.75,1.75-5.23
		c0.78-0.73,1.6-1.84,1.66-2.82c0.18-3.04,2.4-4.7,3.98-6.84c1.14-1.54,2.73-2.58,3.84-4.19c1.4-2.02,5.05-1.83,6.65,0.03
		c1.55,1.8,3.03,3.67,4.53,5.52c2.6,3.2,5.21,6.39,7.77,9.62c1.37,1.73,2.87,3.4,3.48,5.6c-8.34,6.78-16.66,13.58-25.03,20.34
		C361.11,490.44,358.2,492.61,355.33,494.83z"/>
	<path class="st49" d="M356.31,584.11c-0.85-2.27-1.03-4.62-1.02-7.03c0.05-9.88,0.03-19.76,0.02-29.64c0-1.91-0.14-3.84,1-5.55
		c0.51,0.38,1.13,0.67,1.52,1.14c5.63,6.88,11.23,13.78,16.82,20.69c0.3,0.37,0.54,0.78,0.79,1.19c1.05,1.76,1.09,2.39-0.39,3.75
		c-2.57,2.37-5.2,4.68-7.9,6.89C363.58,578.47,359.92,581.27,356.31,584.11z"/>
	<path class="st50" d="M355.28,539.03c-2.96-1.56-4.19-4.66-6.22-7.04c-0.86-1.01-0.49-2.44-0.49-3.69
		c-0.01-9.19,0.01-18.38,0.02-27.57c1.28-1.13,2.57-2.24,3.82-3.39c0.81-0.74,1.62-1.45,2.75-1.64c0.05,6.67,0.12,13.33,0.14,20
		C355.33,523.47,355.29,531.25,355.28,539.03z"/>
	<path class="st46" d="M491.66,480.47c0.32,0.01,0.64,0.02,0.96,0.03c1.79,2.38,3.35,4.94,5.52,7.02c0.71,0.69,1.12,1.51,1.17,2.5
		c-1.21,1.87-0.99,3.98-0.99,6.05c0,20.47,0,40.94,0,61.41c0,1.12-0.03,2.24,0.01,3.36c0.05,1.49-0.13,2.9-1.32,3.95
		c-1.48,1.31-1.59,3.01-1.58,4.82c0.03,8.32-0.01,16.63,0.03,24.95c0.01,2.14-0.18,4.16-1.66,5.82c-0.27,0.3-0.8,0.49-1.22,0.51
		c-0.56,0.03-0.81-0.51-0.85-0.97c-0.1-0.95-0.11-1.91-0.11-2.87c-0.01-38.38-0.01-76.76-0.01-115.14
		C491.61,481.42,491.64,480.95,491.66,480.47z"/>
	<path class="st3" d="M636.51,453.55l-0.46,0.01c0,0-0.46-0.04-0.46-0.04c0.31-0.29,0.61-0.58,0.92-0.86
		C636.53,452.96,636.53,453.25,636.51,453.55z"/>
</g>
</svg>
